(kicad_sch
	(version 20231120)
	(generator "eeschema")
	(generator_version "8.0")
	(uuid "ae57e056-95ce-4baf-8f2c-c6e9eac195cb")
	(paper "A4")
	(lib_symbols
		(symbol "Connector:Conn_01x02_Pin"
			(pin_names
				(offset 1.016) hide)
			(exclude_from_sim no)
			(in_bom yes)
			(on_board yes)
			(property "Reference" "J"
				(at 0 2.54 0)
				(effects
					(font
						(size 1.27 1.27)
					)
				)
			)
			(property "Value" "Conn_01x02_Pin"
				(at 0 -5.08 0)
				(effects
					(font
						(size 1.27 1.27)
					)
				)
			)
			(property "Footprint" ""
				(at 0 0 0)
				(effects
					(font
						(size 1.27 1.27)
					)
					(hide yes)
				)
			)
			(property "Datasheet" "~"
				(at 0 0 0)
				(effects
					(font
						(size 1.27 1.27)
					)
					(hide yes)
				)
			)
			(property "Description" "Generic connector, single row, 01x02, script generated"
				(at 0 0 0)
				(effects
					(font
						(size 1.27 1.27)
					)
					(hide yes)
				)
			)
			(property "ki_locked" ""
				(at 0 0 0)
				(effects
					(font
						(size 1.27 1.27)
					)
				)
			)
			(property "ki_keywords" "connector"
				(at 0 0 0)
				(effects
					(font
						(size 1.27 1.27)
					)
					(hide yes)
				)
			)
			(property "ki_fp_filters" "Connector*:*_1x??_*"
				(at 0 0 0)
				(effects
					(font
						(size 1.27 1.27)
					)
					(hide yes)
				)
			)
			(symbol "Conn_01x02_Pin_1_1"
				(polyline
					(pts
						(xy 1.27 -2.54) (xy 0.8636 -2.54)
					)
					(stroke
						(width 0.1524)
						(type default)
					)
					(fill
						(type none)
					)
				)
				(polyline
					(pts
						(xy 1.27 0) (xy 0.8636 0)
					)
					(stroke
						(width 0.1524)
						(type default)
					)
					(fill
						(type none)
					)
				)
				(rectangle
					(start 0.8636 -2.413)
					(end 0 -2.667)
					(stroke
						(width 0.1524)
						(type default)
					)
					(fill
						(type outline)
					)
				)
				(rectangle
					(start 0.8636 0.127)
					(end 0 -0.127)
					(stroke
						(width 0.1524)
						(type default)
					)
					(fill
						(type outline)
					)
				)
				(pin passive line
					(at 5.08 0 180)
					(length 3.81)
					(name "Pin_1"
						(effects
							(font
								(size 1.27 1.27)
							)
						)
					)
					(number "1"
						(effects
							(font
								(size 1.27 1.27)
							)
						)
					)
				)
				(pin passive line
					(at 5.08 -2.54 180)
					(length 3.81)
					(name "Pin_2"
						(effects
							(font
								(size 1.27 1.27)
							)
						)
					)
					(number "2"
						(effects
							(font
								(size 1.27 1.27)
							)
						)
					)
				)
			)
		)
		(symbol "my_simbols:XL4015"
			(exclude_from_sim no)
			(in_bom yes)
			(on_board yes)
			(property "Reference" "U1"
				(at 0.635 8.89 0)
				(effects
					(font
						(size 1.27 1.27)
					)
				)
			)
			(property "Value" "~"
				(at 0 0 0)
				(effects
					(font
						(size 1.27 1.27)
					)
				)
			)
			(property "Footprint" "Modules:XL4015"
				(at 0 0 0)
				(effects
					(font
						(size 1.27 1.27)
					)
					(hide yes)
				)
			)
			(property "Datasheet" ""
				(at 0 0 0)
				(effects
					(font
						(size 1.27 1.27)
					)
					(hide yes)
				)
			)
			(property "Description" ""
				(at 0 0 0)
				(effects
					(font
						(size 1.27 1.27)
					)
					(hide yes)
				)
			)
			(symbol "XL4015_0_1"
				(rectangle
					(start -7.62 3.81)
					(end 8.89 -3.81)
					(stroke
						(width 0)
						(type default)
					)
					(fill
						(type none)
					)
				)
			)
			(symbol "XL4015_1_1"
				(text "XL4015\n"
					(at 0 5.08 0)
					(effects
						(font
							(size 1.27 1.27)
						)
					)
				)
				(pin input line
					(at -10.16 2.54 0)
					(length 2.54)
					(name "Vin+"
						(effects
							(font
								(size 1.27 1.27)
							)
						)
					)
					(number "1"
						(effects
							(font
								(size 1.27 1.27)
							)
						)
					)
				)
				(pin input line
					(at -10.16 -2.54 0)
					(length 2.54)
					(name "Vin-"
						(effects
							(font
								(size 1.27 1.27)
							)
						)
					)
					(number "2"
						(effects
							(font
								(size 1.27 1.27)
							)
						)
					)
				)
				(pin output line
					(at 11.43 2.54 180)
					(length 2.54)
					(name "Vout+"
						(effects
							(font
								(size 1.27 1.27)
							)
						)
					)
					(number "3"
						(effects
							(font
								(size 1.27 1.27)
							)
						)
					)
				)
				(pin output line
					(at 11.43 -2.54 180)
					(length 2.54)
					(name "Vout-"
						(effects
							(font
								(size 1.27 1.27)
							)
						)
					)
					(number "4"
						(effects
							(font
								(size 1.27 1.27)
							)
						)
					)
				)
			)
		)
		(symbol "power:GND"
			(power)
			(pin_names
				(offset 0)
			)
			(exclude_from_sim no)
			(in_bom yes)
			(on_board yes)
			(property "Reference" "#PWR"
				(at 0 -6.35 0)
				(effects
					(font
						(size 1.27 1.27)
					)
					(hide yes)
				)
			)
			(property "Value" "GND"
				(at 0 -3.81 0)
				(effects
					(font
						(size 1.27 1.27)
					)
				)
			)
			(property "Footprint" ""
				(at 0 0 0)
				(effects
					(font
						(size 1.27 1.27)
					)
					(hide yes)
				)
			)
			(property "Datasheet" ""
				(at 0 0 0)
				(effects
					(font
						(size 1.27 1.27)
					)
					(hide yes)
				)
			)
			(property "Description" "Power symbol creates a global label with name \"GND\" , ground"
				(at 0 0 0)
				(effects
					(font
						(size 1.27 1.27)
					)
					(hide yes)
				)
			)
			(property "ki_keywords" "power-flag"
				(at 0 0 0)
				(effects
					(font
						(size 1.27 1.27)
					)
					(hide yes)
				)
			)
			(symbol "GND_0_1"
				(polyline
					(pts
						(xy 0 0) (xy 0 -1.27) (xy 1.27 -1.27) (xy 0 -2.54) (xy -1.27 -1.27) (xy 0 -1.27)
					)
					(stroke
						(width 0)
						(type default)
					)
					(fill
						(type none)
					)
				)
			)
			(symbol "GND_1_1"
				(pin power_in line
					(at 0 0 270)
					(length 0) hide
					(name "GND"
						(effects
							(font
								(size 1.27 1.27)
							)
						)
					)
					(number "1"
						(effects
							(font
								(size 1.27 1.27)
							)
						)
					)
				)
			)
		)
	)
	(junction
		(at 120.65 88.9)
		(diameter 0)
		(color 0 0 0 0)
		(uuid "023a1250-42ae-4b1f-9b8f-7425a1885524")
	)
	(junction
		(at 144.78 88.9)
		(diameter 0)
		(color 0 0 0 0)
		(uuid "7c72ec0f-e43a-4c6c-ba0d-cff8f7a538a4")
	)
	(bus
		(pts
			(xy 140.335 108.585) (xy 140.335 121.92)
		)
		(stroke
			(width 0)
			(type default)
		)
		(uuid "0c972657-5fef-4b74-bf00-915b648bddea")
	)
	(wire
		(pts
			(xy 121.92 83.82) (xy 115.57 83.82)
		)
		(stroke
			(width 0)
			(type default)
		)
		(uuid "0daff3fa-a415-4473-96c0-98dfbc25c89f")
	)
	(bus
		(pts
			(xy 172.72 121.92) (xy 140.335 121.92)
		)
		(stroke
			(width 0)
			(type default)
		)
		(uuid "287b8145-e781-48c7-8450-e7b05a2d031c")
	)
	(wire
		(pts
			(xy 120.65 88.9) (xy 121.92 88.9)
		)
		(stroke
			(width 0)
			(type default)
		)
		(uuid "2e69d03b-5e0f-487d-8aec-96430a81b4d2")
	)
	(wire
		(pts
			(xy 144.78 91.44) (xy 144.78 88.9)
		)
		(stroke
			(width 0)
			(type default)
		)
		(uuid "345e9a60-c576-4b88-9350-bb0d3b32de03")
	)
	(bus
		(pts
			(xy 116.84 78.74) (xy 148.59 78.74)
		)
		(stroke
			(width 0)
			(type default)
		)
		(uuid "4104eb3d-f301-447e-bca8-7052383ed30d")
	)
	(bus
		(pts
			(xy 123.19 121.92) (xy 90.805 121.92)
		)
		(stroke
			(width 0)
			(type default)
		)
		(uuid "49f39781-d969-4837-90dd-1e0ebc7f911e")
	)
	(bus
		(pts
			(xy 90.805 108.585) (xy 90.805 121.92)
		)
		(stroke
			(width 0)
			(type default)
		)
		(uuid "4f4c8e1a-f460-4a40-9d6f-42b206bc390e")
	)
	(wire
		(pts
			(xy 151.13 88.9) (xy 144.78 88.9)
		)
		(stroke
			(width 0)
			(type default)
		)
		(uuid "7b2fbbaa-7859-4190-8934-49964e761dde")
	)
	(wire
		(pts
			(xy 151.13 83.82) (xy 143.51 83.82)
		)
		(stroke
			(width 0)
			(type default)
		)
		(uuid "815a6660-d4ca-4032-bb93-b542bf2ed7e4")
	)
	(bus
		(pts
			(xy 172.72 108.585) (xy 172.72 121.92)
		)
		(stroke
			(width 0)
			(type default)
		)
		(uuid "8dcec050-51a1-4fd2-9116-caeef7133f0c")
	)
	(bus
		(pts
			(xy 90.805 108.585) (xy 123.19 108.585)
		)
		(stroke
			(width 0)
			(type default)
		)
		(uuid "9066d21a-5594-4f81-bc7c-9fd272850262")
	)
	(bus
		(pts
			(xy 148.59 97.79) (xy 116.84 97.79)
		)
		(stroke
			(width 0)
			(type default)
		)
		(uuid "a3fb74f7-5315-4957-a996-e570fe542884")
	)
	(bus
		(pts
			(xy 140.335 108.585) (xy 172.72 108.585)
		)
		(stroke
			(width 0)
			(type default)
		)
		(uuid "aa80bf30-cfe9-4371-8849-82373245b97c")
	)
	(wire
		(pts
			(xy 120.65 91.44) (xy 120.65 88.9)
		)
		(stroke
			(width 0)
			(type default)
		)
		(uuid "aaaa9ae5-6e3b-4e87-a1d0-4be19bc6ccec")
	)
	(bus
		(pts
			(xy 116.84 97.79) (xy 116.84 78.74)
		)
		(stroke
			(width 0)
			(type default)
		)
		(uuid "ae900319-e79c-4e9c-a220-3e3f1415e90c")
	)
	(wire
		(pts
			(xy 144.78 88.9) (xy 143.51 88.9)
		)
		(stroke
			(width 0)
			(type default)
		)
		(uuid "d59b512e-b3cc-495c-bce7-2f976ae97521")
	)
	(wire
		(pts
			(xy 114.3 88.9) (xy 120.65 88.9)
		)
		(stroke
			(width 0)
			(type default)
		)
		(uuid "e869101d-f701-4022-9301-363a58c842ba")
	)
	(bus
		(pts
			(xy 123.19 108.585) (xy 123.19 121.92)
		)
		(stroke
			(width 0)
			(type default)
		)
		(uuid "ec0bef81-3325-4ceb-a87e-924a646c6356")
	)
	(bus
		(pts
			(xy 148.59 78.74) (xy 148.59 97.79)
		)
		(stroke
			(width 0)
			(type default)
		)
		(uuid "ef5e6dd7-9b84-439e-84d4-16d516de8ae7")
	)
	(text "INPUT:\n	-	+VDC and GND from M3.2 (32.5 V+) - MOLEX KK 396 01X02\nOUTPUT:\n	-	+9V_MOTOR_POWER MOLEX KK 396 01X02\n"
		(exclude_from_sim no)
		(at 63.754 45.72 0)
		(effects
			(font
				(size 3 3)
			)
			(justify left)
		)
		(uuid "4def12a6-8ec4-4f3b-837e-920694923f29")
	)
	(text "OUT\n"
		(exclude_from_sim no)
		(at 142.113 107.315 0)
		(effects
			(font
				(size 1.27 1.27)
			)
			(justify left bottom)
		)
		(uuid "5c6dbd8a-f0f8-4561-9708-eec59c61ab13")
	)
	(text "Step Down Regulation to 9V\n\n"
		(exclude_from_sim no)
		(at 119.38 80.01 0)
		(effects
			(font
				(size 1.27 1.27)
			)
			(justify left bottom)
		)
		(uuid "893cd6b4-263d-46bb-9e4a-209d3c603cde")
	)
	(text "IN\n\n"
		(exclude_from_sim no)
		(at 93.98 109.855 0)
		(effects
			(font
				(size 1.27 1.27)
			)
			(justify left bottom)
		)
		(uuid "a17df605-2388-4cfa-be30-a40828f36c5d")
	)
	(text "M3.3.2 - MOTOR POWER"
		(exclude_from_sim no)
		(at 132.334 24.13 0)
		(effects
			(font
				(size 5 5)
			)
		)
		(uuid "b8ac66be-e04c-4553-97bb-58ef7bcce8f3")
	)
	(label "VDC_+"
		(at 97.79 113.03 180)
		(fields_autoplaced yes)
		(effects
			(font
				(size 1.27 1.27)
			)
			(justify right bottom)
		)
		(uuid "2f9ade16-b76b-4be3-bf2d-dcfa68392edf")
	)
	(label "GND"
		(at 151.13 88.9 0)
		(fields_autoplaced yes)
		(effects
			(font
				(size 1.27 1.27)
			)
			(justify left bottom)
		)
		(uuid "38ec79bc-b58e-4378-9052-a739cf0aecdc")
	)
	(label "VOUT_VCD+"
		(at 115.57 83.82 180)
		(fields_autoplaced yes)
		(effects
			(font
				(size 1.27 1.27)
			)
			(justify right bottom)
		)
		(uuid "8e3b25a6-7dac-487f-8f75-46e3be866ba3")
	)
	(label "9V+"
		(at 147.32 113.03 180)
		(fields_autoplaced yes)
		(effects
			(font
				(size 1.27 1.27)
			)
			(justify right bottom)
		)
		(uuid "da650616-a6d2-422f-9f56-6ff8fb6633f7")
	)
	(label "GND"
		(at 114.3 88.9 180)
		(fields_autoplaced yes)
		(effects
			(font
				(size 1.27 1.27)
			)
			(justify right bottom)
		)
		(uuid "e43bc0f6-a235-43a2-aaad-0b512846ad86")
	)
	(label "9V+"
		(at 151.13 83.82 0)
		(fields_autoplaced yes)
		(effects
			(font
				(size 1.27 1.27)
			)
			(justify left bottom)
		)
		(uuid "eedddd1a-d570-4320-90d8-54b30a99899a")
	)
	(symbol
		(lib_id "power:GND")
		(at 97.79 115.57 0)
		(unit 1)
		(exclude_from_sim no)
		(in_bom yes)
		(on_board yes)
		(dnp no)
		(uuid "09c208ab-92ec-4d3a-a655-ef74ab2686eb")
		(property "Reference" "#PWR01"
			(at 97.79 121.92 0)
			(effects
				(font
					(size 1.27 1.27)
				)
				(hide yes)
			)
		)
		(property "Value" "GND"
			(at 97.917 119.9642 0)
			(effects
				(font
					(size 1.27 1.27)
				)
			)
		)
		(property "Footprint" ""
			(at 97.79 115.57 0)
			(effects
				(font
					(size 1.27 1.27)
				)
				(hide yes)
			)
		)
		(property "Datasheet" ""
			(at 97.79 115.57 0)
			(effects
				(font
					(size 1.27 1.27)
				)
				(hide yes)
			)
		)
		(property "Description" ""
			(at 97.79 115.57 0)
			(effects
				(font
					(size 1.27 1.27)
				)
				(hide yes)
			)
		)
		(pin "1"
			(uuid "33221770-1d58-47e7-89bd-ecf13ca1ef71")
		)
		(instances
			(project "M3.3.2"
				(path "/ae57e056-95ce-4baf-8f2c-c6e9eac195cb"
					(reference "#PWR01")
					(unit 1)
				)
			)
		)
	)
	(symbol
		(lib_id "Connector:Conn_01x02_Pin")
		(at 102.87 115.57 180)
		(unit 1)
		(exclude_from_sim no)
		(in_bom yes)
		(on_board yes)
		(dnp no)
		(uuid "0f873421-e181-44c6-abc6-f093340411a3")
		(property "Reference" "J1"
			(at 111.252 115.062 0)
			(effects
				(font
					(size 1.27 1.27)
				)
			)
		)
		(property "Value" "POWER_IN"
			(at 111.252 112.522 0)
			(effects
				(font
					(size 1.27 1.27)
				)
			)
		)
		(property "Footprint" "my_pretty_componets:Molex_KK-396_1x02_P3.96mm_Horizontal"
			(at 102.87 115.57 0)
			(effects
				(font
					(size 1.27 1.27)
				)
				(hide yes)
			)
		)
		(property "Datasheet" "~"
			(at 102.87 115.57 0)
			(effects
				(font
					(size 1.27 1.27)
				)
				(hide yes)
			)
		)
		(property "Description" ""
			(at 102.87 115.57 0)
			(effects
				(font
					(size 1.27 1.27)
				)
				(hide yes)
			)
		)
		(pin "1"
			(uuid "c303d166-b018-4fa6-8922-c14e0c574e5b")
		)
		(pin "2"
			(uuid "73f5d8e5-13dc-42d6-a8ae-f86a856b3fa7")
		)
		(instances
			(project "M3.3.2"
				(path "/ae57e056-95ce-4baf-8f2c-c6e9eac195cb"
					(reference "J1")
					(unit 1)
				)
			)
		)
	)
	(symbol
		(lib_id "power:GND")
		(at 147.32 115.57 0)
		(unit 1)
		(exclude_from_sim no)
		(in_bom yes)
		(on_board yes)
		(dnp no)
		(uuid "33b052b2-2b2e-40cd-9327-cf3f7eac875a")
		(property "Reference" "#PWR03"
			(at 147.32 121.92 0)
			(effects
				(font
					(size 1.27 1.27)
				)
				(hide yes)
			)
		)
		(property "Value" "GND"
			(at 147.447 119.9642 0)
			(effects
				(font
					(size 1.27 1.27)
				)
			)
		)
		(property "Footprint" ""
			(at 147.32 115.57 0)
			(effects
				(font
					(size 1.27 1.27)
				)
				(hide yes)
			)
		)
		(property "Datasheet" ""
			(at 147.32 115.57 0)
			(effects
				(font
					(size 1.27 1.27)
				)
				(hide yes)
			)
		)
		(property "Description" ""
			(at 147.32 115.57 0)
			(effects
				(font
					(size 1.27 1.27)
				)
				(hide yes)
			)
		)
		(pin "1"
			(uuid "3171b9f3-ad4c-4901-8598-b1185b61ae03")
		)
		(instances
			(project "M3.3.2"
				(path "/ae57e056-95ce-4baf-8f2c-c6e9eac195cb"
					(reference "#PWR03")
					(unit 1)
				)
			)
		)
	)
	(symbol
		(lib_id "power:GND")
		(at 120.65 91.44 0)
		(unit 1)
		(exclude_from_sim no)
		(in_bom yes)
		(on_board yes)
		(dnp no)
		(uuid "90867a8d-2c9a-4ee2-8010-6f48c6603987")
		(property "Reference" "#PWR02"
			(at 120.65 97.79 0)
			(effects
				(font
					(size 1.27 1.27)
				)
				(hide yes)
			)
		)
		(property "Value" "GND"
			(at 120.777 95.8342 0)
			(effects
				(font
					(size 1.27 1.27)
				)
			)
		)
		(property "Footprint" ""
			(at 120.65 91.44 0)
			(effects
				(font
					(size 1.27 1.27)
				)
				(hide yes)
			)
		)
		(property "Datasheet" ""
			(at 120.65 91.44 0)
			(effects
				(font
					(size 1.27 1.27)
				)
				(hide yes)
			)
		)
		(property "Description" ""
			(at 120.65 91.44 0)
			(effects
				(font
					(size 1.27 1.27)
				)
				(hide yes)
			)
		)
		(pin "1"
			(uuid "f5ced5a9-6ba0-4c47-ab4d-77b56a7891d9")
		)
		(instances
			(project "M3.3.2"
				(path "/ae57e056-95ce-4baf-8f2c-c6e9eac195cb"
					(reference "#PWR02")
					(unit 1)
				)
			)
		)
	)
	(symbol
		(lib_id "Connector:Conn_01x02_Pin")
		(at 152.4 115.57 180)
		(unit 1)
		(exclude_from_sim no)
		(in_bom yes)
		(on_board yes)
		(dnp no)
		(fields_autoplaced yes)
		(uuid "a387b70f-ed11-4143-a612-0823e96600af")
		(property "Reference" "J2"
			(at 153.67 113.0299 0)
			(effects
				(font
					(size 1.27 1.27)
				)
				(justify right)
			)
		)
		(property "Value" "MOTOR_POWER"
			(at 153.67 115.5699 0)
			(effects
				(font
					(size 1.27 1.27)
				)
				(justify right)
			)
		)
		(property "Footprint" "my_pretty_componets:Molex_KK-396_1x02_P3.96mm_Horizontal"
			(at 152.4 115.57 0)
			(effects
				(font
					(size 1.27 1.27)
				)
				(hide yes)
			)
		)
		(property "Datasheet" "~"
			(at 152.4 115.57 0)
			(effects
				(font
					(size 1.27 1.27)
				)
				(hide yes)
			)
		)
		(property "Description" ""
			(at 152.4 115.57 0)
			(effects
				(font
					(size 1.27 1.27)
				)
				(hide yes)
			)
		)
		(pin "1"
			(uuid "392c5320-381b-4cca-994e-2e76cad6766d")
		)
		(pin "2"
			(uuid "3fb698d1-b625-4b83-899e-c804adfe1191")
		)
		(instances
			(project "M3.3.2"
				(path "/ae57e056-95ce-4baf-8f2c-c6e9eac195cb"
					(reference "J2")
					(unit 1)
				)
			)
		)
	)
	(symbol
		(lib_id "power:GND")
		(at 144.78 91.44 0)
		(unit 1)
		(exclude_from_sim no)
		(in_bom yes)
		(on_board yes)
		(dnp no)
		(uuid "ca32ea61-af9f-4fa3-8cdb-11ed760cb8a3")
		(property "Reference" "#PWR04"
			(at 144.78 97.79 0)
			(effects
				(font
					(size 1.27 1.27)
				)
				(hide yes)
			)
		)
		(property "Value" "GND"
			(at 144.907 95.8342 0)
			(effects
				(font
					(size 1.27 1.27)
				)
			)
		)
		(property "Footprint" ""
			(at 144.78 91.44 0)
			(effects
				(font
					(size 1.27 1.27)
				)
				(hide yes)
			)
		)
		(property "Datasheet" ""
			(at 144.78 91.44 0)
			(effects
				(font
					(size 1.27 1.27)
				)
				(hide yes)
			)
		)
		(property "Description" ""
			(at 144.78 91.44 0)
			(effects
				(font
					(size 1.27 1.27)
				)
				(hide yes)
			)
		)
		(pin "1"
			(uuid "15c1fa65-c53e-4640-8e28-153d75ed1576")
		)
		(instances
			(project "M3.3.2"
				(path "/ae57e056-95ce-4baf-8f2c-c6e9eac195cb"
					(reference "#PWR04")
					(unit 1)
				)
			)
		)
	)
	(symbol
		(lib_id "my_simbols:XL4015")
		(at 132.08 86.36 0)
		(unit 1)
		(exclude_from_sim no)
		(in_bom yes)
		(on_board yes)
		(dnp no)
		(uuid "e2f36845-49eb-43e8-937b-cf5a8b236bfc")
		(property "Reference" "U2"
			(at 132.08 86.36 0)
			(effects
				(font
					(size 1.27 1.27)
				)
			)
		)
		(property "Value" "~"
			(at 132.715 78.74 0)
			(effects
				(font
					(size 1.27 1.27)
				)
			)
		)
		(property "Footprint" "my_pretty_componets:XL4015_DC-DC"
			(at 132.08 86.36 0)
			(effects
				(font
					(size 1.27 1.27)
				)
				(hide yes)
			)
		)
		(property "Datasheet" ""
			(at 132.08 86.36 0)
			(effects
				(font
					(size 1.27 1.27)
				)
				(hide yes)
			)
		)
		(property "Description" ""
			(at 132.08 86.36 0)
			(effects
				(font
					(size 1.27 1.27)
				)
				(hide yes)
			)
		)
		(pin "1"
			(uuid "6c4b45f9-fafa-4e0e-94f1-7bd786cda3a8")
		)
		(pin "2"
			(uuid "1a1bfbcb-d79f-46fa-b42c-b052203d5a4f")
		)
		(pin "4"
			(uuid "c7737ed8-b92b-42ff-9fd4-725d19d6ef13")
		)
		(pin "3"
			(uuid "56864a10-ccb1-4490-b889-7d805dd0ab06")
		)
		(instances
			(project "M3.3.2"
				(path "/ae57e056-95ce-4baf-8f2c-c6e9eac195cb"
					(reference "U2")
					(unit 1)
				)
			)
		)
	)
	(sheet_instances
		(path "/"
			(page "1")
		)
	)
)
