%TF.GenerationSoftware,KiCad,Pcbnew,7.0.6+dfsg-1*%
%TF.CreationDate,2023-10-23T21:08:25-03:00*%
%TF.ProjectId,M8,4d382e6b-6963-4616-945f-706362585858,rev?*%
%TF.SameCoordinates,Original*%
%TF.FileFunction,Copper,L2,Bot*%
%TF.FilePolarity,Positive*%
%FSLAX46Y46*%
G04 Gerber Fmt 4.6, Leading zero omitted, Abs format (unit mm)*
G04 Created by KiCad (PCBNEW 7.0.6+dfsg-1) date 2023-10-23 21:08:25*
%MOMM*%
%LPD*%
G01*
G04 APERTURE LIST*
G04 Aperture macros list*
%AMRoundRect*
0 Rectangle with rounded corners*
0 $1 Rounding radius*
0 $2 $3 $4 $5 $6 $7 $8 $9 X,Y pos of 4 corners*
0 Add a 4 corners polygon primitive as box body*
4,1,4,$2,$3,$4,$5,$6,$7,$8,$9,$2,$3,0*
0 Add four circle primitives for the rounded corners*
1,1,$1+$1,$2,$3*
1,1,$1+$1,$4,$5*
1,1,$1+$1,$6,$7*
1,1,$1+$1,$8,$9*
0 Add four rect primitives between the rounded corners*
20,1,$1+$1,$2,$3,$4,$5,0*
20,1,$1+$1,$4,$5,$6,$7,0*
20,1,$1+$1,$6,$7,$8,$9,0*
20,1,$1+$1,$8,$9,$2,$3,0*%
G04 Aperture macros list end*
%TA.AperFunction,ComponentPad*%
%ADD10R,2.000000X2.000000*%
%TD*%
%TA.AperFunction,ComponentPad*%
%ADD11C,2.000000*%
%TD*%
%TA.AperFunction,ComponentPad*%
%ADD12RoundRect,0.287356X0.712644X1.212644X-0.712644X1.212644X-0.712644X-1.212644X0.712644X-1.212644X0*%
%TD*%
%TA.AperFunction,ComponentPad*%
%ADD13O,2.000000X3.000000*%
%TD*%
%TA.AperFunction,Conductor*%
%ADD14C,0.800000*%
%TD*%
G04 APERTURE END LIST*
D10*
%TO.P,D4,1,K*%
%TO.N,GND*%
X84074000Y-102870000D03*
D11*
%TO.P,D4,2,A*%
%TO.N,/L2*%
X86614000Y-102870000D03*
%TD*%
D10*
%TO.P,D2,1,K*%
%TO.N,GND*%
X122936000Y-102870000D03*
D11*
%TO.P,D2,2,A*%
%TO.N,/Dir2*%
X120396000Y-102870000D03*
%TD*%
D10*
%TO.P,D1,1,K*%
%TO.N,GND*%
X115570000Y-102870000D03*
D11*
%TO.P,D1,2,A*%
%TO.N,/Dir1*%
X113030000Y-102870000D03*
%TD*%
D10*
%TO.P,D3,1,K*%
%TO.N,GND*%
X76708000Y-102870000D03*
D11*
%TO.P,D3,2,A*%
%TO.N,/L1*%
X79248000Y-102870000D03*
%TD*%
D10*
%TO.P,D5,1,K*%
%TO.N,GND*%
X91440000Y-102870000D03*
D11*
%TO.P,D5,2,A*%
%TO.N,/L3*%
X93980000Y-102870000D03*
%TD*%
D12*
%TO.P,J1,1,Pin_1*%
%TO.N,GND*%
X112936000Y-110712000D03*
D13*
%TO.P,J1,2,Pin_2*%
%TO.N,/Dir2*%
X110396000Y-110712000D03*
%TO.P,J1,3,Pin_3*%
%TO.N,/Dir1*%
X107856000Y-110712000D03*
%TD*%
D12*
%TO.P,J2,1,Pin_1*%
%TO.N,GND*%
X94836000Y-110712000D03*
D13*
%TO.P,J2,2,Pin_2*%
%TO.N,/L3*%
X92296000Y-110712000D03*
%TO.P,J2,3,Pin_3*%
%TO.N,/L2*%
X89756000Y-110712000D03*
%TO.P,J2,4,Pin_4*%
%TO.N,/L1*%
X87216000Y-110712000D03*
%TD*%
D14*
%TO.N,/L3*%
X93980000Y-102870000D02*
X93980000Y-105283000D01*
X93980000Y-105283000D02*
X92296000Y-106967000D01*
X92296000Y-106967000D02*
X92296000Y-110712000D01*
%TO.N,/L2*%
X89756000Y-110712000D02*
X89756000Y-108298000D01*
X89756000Y-108298000D02*
X86614000Y-105156000D01*
X86614000Y-105156000D02*
X86614000Y-102870000D01*
%TO.N,GND*%
X94836000Y-110712000D02*
X94836000Y-108364000D01*
X96774000Y-106426000D02*
X96774000Y-101854000D01*
X94836000Y-108364000D02*
X96774000Y-106426000D01*
X96774000Y-101854000D02*
X95758000Y-100838000D01*
X95758000Y-100838000D02*
X92202000Y-100838000D01*
X92202000Y-100838000D02*
X91440000Y-101600000D01*
X76708000Y-102870000D02*
X76708000Y-101600000D01*
X76708000Y-101600000D02*
X77470000Y-100838000D01*
X77470000Y-100838000D02*
X83312000Y-100838000D01*
X83312000Y-100838000D02*
X84074000Y-101600000D01*
X91440000Y-102870000D02*
X91440000Y-101600000D01*
X91440000Y-101600000D02*
X90678000Y-100838000D01*
X90678000Y-100838000D02*
X84836000Y-100838000D01*
X84836000Y-100838000D02*
X84074000Y-101600000D01*
X84074000Y-101600000D02*
X84074000Y-102870000D01*
X112936000Y-110712000D02*
X112936000Y-113378000D01*
X112936000Y-113378000D02*
X112014000Y-114300000D01*
X112014000Y-114300000D02*
X95758000Y-114300000D01*
X95758000Y-114300000D02*
X94836000Y-113378000D01*
X94836000Y-113378000D02*
X94836000Y-110712000D01*
X122936000Y-102870000D02*
X122936000Y-101600000D01*
X122936000Y-101600000D02*
X122174000Y-100838000D01*
X122174000Y-100838000D02*
X116078000Y-100838000D01*
X116078000Y-100838000D02*
X115570000Y-101346000D01*
X115570000Y-101346000D02*
X115570000Y-102870000D01*
X122936000Y-102870000D02*
X122936000Y-108712000D01*
X122936000Y-108712000D02*
X120936000Y-110712000D01*
X120936000Y-110712000D02*
X112936000Y-110712000D01*
%TO.N,/Dir1*%
X107856000Y-104742000D02*
X107856000Y-110712000D01*
X109728000Y-102870000D02*
X107856000Y-104742000D01*
X113030000Y-102870000D02*
X109728000Y-102870000D01*
%TO.N,/Dir2*%
X111506000Y-105664000D02*
X119126000Y-105664000D01*
X120396000Y-104394000D02*
X120396000Y-102870000D01*
X119126000Y-105664000D02*
X120396000Y-104394000D01*
X110396000Y-106774000D02*
X111506000Y-105664000D01*
X110396000Y-110712000D02*
X110396000Y-106774000D01*
%TO.N,/L1*%
X79248000Y-105410000D02*
X79248000Y-102870000D01*
X80264000Y-106426000D02*
X79248000Y-105410000D01*
X84836000Y-106426000D02*
X80264000Y-106426000D01*
X87216000Y-108806000D02*
X84836000Y-106426000D01*
X87216000Y-110712000D02*
X87216000Y-108806000D01*
%TD*%
M02*
