(kicad_pcb
	(version 20240108)
	(generator "pcbnew")
	(generator_version "8.0")
	(general
		(thickness 1.6)
		(legacy_teardrops no)
	)
	(paper "A4")
	(layers
		(0 "F.Cu" signal)
		(31 "B.Cu" signal)
		(32 "B.Adhes" user "B.Adhesive")
		(33 "F.Adhes" user "F.Adhesive")
		(34 "B.Paste" user)
		(35 "F.Paste" user)
		(36 "B.SilkS" user "B.Silkscreen")
		(37 "F.SilkS" user "F.Silkscreen")
		(38 "B.Mask" user)
		(39 "F.Mask" user)
		(40 "Dwgs.User" user "User.Drawings")
		(41 "Cmts.User" user "User.Comments")
		(42 "Eco1.User" user "User.Eco1")
		(43 "Eco2.User" user "User.Eco2")
		(44 "Edge.Cuts" user)
		(45 "Margin" user)
		(46 "B.CrtYd" user "B.Courtyard")
		(47 "F.CrtYd" user "F.Courtyard")
		(48 "B.Fab" user)
		(49 "F.Fab" user)
		(50 "User.1" user)
		(51 "User.2" user)
		(52 "User.3" user)
		(53 "User.4" user)
		(54 "User.5" user)
		(55 "User.6" user)
		(56 "User.7" user)
		(57 "User.8" user)
		(58 "User.9" user)
	)
	(setup
		(pad_to_mask_clearance 0)
		(allow_soldermask_bridges_in_footprints no)
		(pcbplotparams
			(layerselection 0x00010fc_ffffffff)
			(plot_on_all_layers_selection 0x0000000_00000000)
			(disableapertmacros no)
			(usegerberextensions no)
			(usegerberattributes yes)
			(usegerberadvancedattributes yes)
			(creategerberjobfile yes)
			(dashed_line_dash_ratio 12.000000)
			(dashed_line_gap_ratio 3.000000)
			(svgprecision 4)
			(plotframeref no)
			(viasonmask no)
			(mode 1)
			(useauxorigin no)
			(hpglpennumber 1)
			(hpglpenspeed 20)
			(hpglpendiameter 15.000000)
			(pdf_front_fp_property_popups yes)
			(pdf_back_fp_property_popups yes)
			(dxfpolygonmode yes)
			(dxfimperialunits yes)
			(dxfusepcbnewfont yes)
			(psnegative no)
			(psa4output no)
			(plotreference yes)
			(plotvalue yes)
			(plotfptext yes)
			(plotinvisibletext no)
			(sketchpadsonfab no)
			(subtractmaskfromsilk no)
			(outputformat 1)
			(mirror no)
			(drillshape 1)
			(scaleselection 1)
			(outputdirectory "")
		)
	)
	(net 0 "")
	(net 1 "GND")
	(net 2 "/9V+")
	(net 3 "/VOUT_VCD+")
	(footprint "my_pretty_componets:XL4015_DC-DC"
		(layer "F.Cu")
		(uuid "c36ad3ed-5eb1-448e-8f03-efe98f32b8b6")
		(at 73.5 92.5)
		(property "Reference" "U2"
			(at 7 -2 0)
			(layer "F.SilkS")
			(uuid "48f1e59d-653f-4813-9cbd-efa98d395be9")
			(effects
				(font
					(size 1 1)
					(thickness 0.15)
				)
			)
		)
		(property "Value" "~"
			(at 6.35 -0.23 0)
			(layer "F.Fab")
			(uuid "24dc2026-f796-403b-b3e9-282933f69fe4")
			(effects
				(font
					(size 1 1)
					(thickness 0.15)
				)
			)
		)
		(property "Footprint" "my_pretty_componets:XL4015_DC-DC"
			(at 21 1 0)
			(unlocked yes)
			(layer "F.Fab")
			(hide yes)
			(uuid "29742c15-05db-4a52-8230-9cf98d1cbaa3")
			(effects
				(font
					(size 1.27 1.27)
					(thickness 0.15)
				)
			)
		)
		(property "Datasheet" ""
			(at 0 -1.5 0)
			(unlocked yes)
			(layer "F.Fab")
			(hide yes)
			(uuid "1c3ed6f9-0d07-4062-904e-08d8cf0b0c1c")
			(effects
				(font
					(size 1.27 1.27)
					(thickness 0.15)
				)
			)
		)
		(property "Description" ""
			(at 0 -1.5 0)
			(unlocked yes)
			(layer "F.Fab")
			(hide yes)
			(uuid "dd3870c5-3ae6-467c-8268-861bcddbe2a7")
			(effects
				(font
					(size 1.27 1.27)
					(thickness 0.15)
				)
			)
		)
		(path "/e2f36845-49eb-43e8-937b-cf5a8b236bfc")
		(sheetname "Raíz")
		(sheetfile "M3.3.2.kicad_sch")
		(attr through_hole)
		(fp_rect
			(start 6 -26)
			(end 68 0)
			(stroke
				(width 0.1)
				(type default)
			)
			(fill none)
			(layer "F.SilkS")
			(uuid "b40b9ccb-9769-48b6-b40b-ea4491c67e45")
		)
		(fp_text user "OUT-"
			(at 62 -6.5 0)
			(layer "F.SilkS")
			(uuid "270eafbb-1f33-4a5e-b6a8-e01b59b80a74")
			(effects
				(font
					(size 1 1)
					(thickness 0.15)
				)
			)
		)
		(fp_text user "IN+"
			(at 11 -19.5 0)
			(layer "F.SilkS")
			(uuid "7192693b-bb32-423a-97ab-34e41bb12a5c")
			(effects
				(font
					(size 1 1)
					(thickness 0.15)
				)
			)
		)
		(fp_text user "Output: DC 1.25V-36V (adj.) | max. 5A/75W"
			(at 37 -14.278 0)
			(layer "F.SilkS")
			(uuid "8e23c143-91f2-448e-959a-15b5536811a0")
			(effects
				(font
					(size 1 1)
					(thickness 0.15)
				)
			)
		)
		(fp_text user "IN-"
			(at 11.5 -6.5 0)
			(layer "F.SilkS")
			(uuid "92feefba-401d-44a5-80c0-6e26079dc937")
			(effects
				(font
					(size 1 1)
					(thickness 0.15)
				)
			)
		)
		(fp_text user "OUT+"
			(at 62 -20 0)
			(layer "F.SilkS")
			(uuid "bbf75efb-f42a-4312-91e5-a40bbc72a2f9")
			(effects
				(font
					(size 1 1)
					(thickness 0.15)
				)
			)
		)
		(fp_text user "Better under 4.5A - If > 50W need heatsink"
			(at 37 -12.5 0)
			(layer "F.SilkS")
			(uuid "cc15ccc9-843d-4c53-a9b4-d08f990be2a1")
			(effects
				(font
					(size 1 1)
					(thickness 0.15)
				)
			)
		)
		(fp_text user "Input: DC 5V-38V"
			(at 26.586 -16.056 0)
			(layer "F.SilkS")
			(uuid "cfe8a35a-322a-4ec4-a844-5ada68b029af")
			(effects
				(font
					(size 1 1)
					(thickness 0.15)
				)
			)
		)
		(pad "" thru_hole circle
			(at 8.5 -23.5)
			(size 4.048 4.048)
			(drill 3.048)
			(layers "*.Cu" "*.Mask")
			(remove_unused_layers no)
			(uuid "4570e40c-2d31-463b-9697-49d0a8c363d1")
		)
		(pad "" thru_hole circle
			(at 8.5 -2.5)
			(size 4.048 4.048)
			(drill 3.048)
			(layers "*.Cu" "*.Mask")
			(remove_unused_layers no)
			(uuid "9a0bb766-9a7f-40dc-b478-16b566922d37")
		)
		(pad "" thru_hole circle
			(at 65.5 -23.5)
			(size 4.048 4.048)
			(drill 3.048)
			(layers "*.Cu" "*.Mask")
			(remove_unused_layers no)
			(uuid "d39d3fbf-cbaf-4c1e-b399-40a3c2d8836c")
		)
		(pad "" thru_hole circle
			(at 65.5 -2.5)
			(size 4.048 4.048)
			(drill 3.048)
			(layers "*.Cu" "*.Mask")
			(remove_unused_layers no)
			(uuid "e40ebda0-9698-4b2e-9239-1ef6fe766494")
		)
		(pad "1" thru_hole rect
			(at 8 -19.5)
			(size 3 3)
			(drill 1.2)
			(layers "*.Cu" "*.Mask")
			(remove_unused_layers no)
			(net 3 "/VOUT_VCD+")
			(pinfunction "Vin+")
			(pintype "input")
			(uuid "34f839f5-a5ff-42d3-8977-a8baa611c8ad")
		)
		(pad "2" thru_hole rect
			(at 8 -6.5)
			(size 3 3)
			(drill 1.2)
			(layers "*.Cu" "*.Mask")
			(remove_unused_layers no)
			(net 1 "GND")
			(pinfunction "Vin-")
			(pintype "input")
			(uuid "60f8f42b-b1ca-4d17-a9e9-0c0ad7df0267")
		)
		(pad "3" thru_hole rect
			(at 66 -19.5)
			(size 3 3)
			(drill 1.2)
			(layers "*.Cu" "*.Mask")
			(remove_unused_layers no)
			(net 2 "/9V+")
			(pinfunction "Vout+")
			(pintype "output")
			(uuid "9c972eac-6030-4d0e-b3a6-39316d3f60f4")
		)
		(pad "4" thru_hole rect
			(at 66 -6.5)
			(size 3 3)
			(drill 1.2)
			(layers "*.Cu" "*.Mask")
			(remove_unused_layers no)
			(net 1 "GND")
			(pinfunction "Vout-")
			(pintype "output")
			(uuid "8c7ae3e6-d0c0-45b2-9c02-de63a51a71fa")
		)
		(model "/home/matiasmollecker/.local/share/kicad/8.0/3dmodels/my_3D_models/components/XL4005_step.step"
			(hide yes)
			(offset
				(xyz 21.4 4.7 -43)
			)
			(scale
				(xyz 1 1 1)
			)
			(rotate
				(xyz 0 0 0)
			)
		)
		(model "/home/matiasmollecker/.local/share/kicad/8.0/3dmodels/my_3D_models/components/1x1 Male Pin Header.STEP"
			(offset
				(xyz 1.9 0.5 0)
			)
			(scale
				(xyz 1 1 1)
			)
			(rotate
				(xyz -90 0 0)
			)
		)
		(model "/home/matiasmollecker/.local/share/kicad/8.0/3dmodels/my_3D_models/components/1x1 Male Pin Header.STEP"
			(offset
				(xyz 1.9 19 0)
			)
			(scale
				(xyz 1 1 1)
			)
			(rotate
				(xyz -90 0 0)
			)
		)
		(model "/home/matiasmollecker/.local/share/kicad/8.0/3dmodels/my_3D_models/components/1x1 Male Pin Header.STEP"
			(offset
				(xyz 42.9 19 0)
			)
			(scale
				(xyz 1 1 1)
			)
			(rotate
				(xyz -90 0 0)
			)
		)
		(model "/home/matiasmollecker/.local/share/kicad/8.0/3dmodels/my_3D_models/components/1x1 Male Pin Header.STEP"
			(offset
				(xyz 42.9 0.5 0)
			)
			(scale
				(xyz 1 1 1)
			)
			(rotate
				(xyz -90 0 0)
			)
		)
	)
)
