(module MT3608 (layer F.Cu) (tedit 604A22EF)
  (fp_text reference REF** (at 0 -9.398) (layer F.SilkS)
    (effects (font (size 1 1) (thickness 0.15)))
  )
  (fp_text value MT3608 (at 0 9.652) (layer F.Fab)
    (effects (font (size 1 1) (thickness 0.15)))
  )
  (fp_line (start -18.5 -8.5) (end 18.5 -8.5) (layer F.SilkS) (width 0.12))
  (fp_line (start 18.5 -8.5) (end 18.5 8.5) (layer F.SilkS) (width 0.12))
  (fp_line (start 18.5 8.5) (end -18.5 8.5) (layer F.SilkS) (width 0.12))
  (fp_line (start -18.5 8.5) (end -18.5 -8.5) (layer F.SilkS) (width 0.12))
  (fp_text user Vin+ (at 11.45 -6) (layer F.SilkS)
    (effects (font (size 1 1) (thickness 0.15)))
  )
  (fp_text user Vin- (at 11.45 6) (layer F.SilkS)
    (effects (font (size 1 1) (thickness 0.15)))
  )
  (fp_text user Vout+ (at -11.45 -6) (layer F.SilkS)
    (effects (font (size 1 1) (thickness 0.15)))
  )
  (fp_text user Vout- (at -11.45 6) (layer F.SilkS)
    (effects (font (size 1 1) (thickness 0.15)))
  )
  (fp_text user "Step Up 2A" (at 0 0) (layer F.SilkS)
    (effects (font (size 1 1) (thickness 0.15)))
  )
  (fp_line (start -10.5 1.5) (end -4 1.5) (layer F.SilkS) (width 0.12))
  (fp_line (start -4 1.5) (end -4 5.5) (layer F.SilkS) (width 0.12))
  (fp_line (start -4 5.5) (end -10.5 5.5) (layer F.SilkS) (width 0.12))
  (fp_line (start -10.5 5.5) (end -10.5 1.5) (layer F.SilkS) (width 0.12))
  (pad 1 smd rect (at -15.5 -3.5) (size 6 3) (layers F.Cu F.Paste F.Mask))
  (pad 2 smd rect (at -15.5 3.5) (size 6 3) (layers F.Cu F.Paste F.Mask))
  (pad 3 smd rect (at 15.5 -3.5) (size 6 3) (layers F.Cu F.Paste F.Mask))
  (pad 4 smd rect (at 15.5 3.5) (size 6 3) (layers F.Cu F.Paste F.Mask))
  (pad 5 thru_hole circle (at -7.25 4.5) (size 1.524 1.524) (drill 0.762) (layers *.Cu *.Mask))
  (pad 6 thru_hole circle (at -5 2.5) (size 1.524 1.524) (drill 0.762) (layers *.Cu *.Mask))
  (pad 7 thru_hole circle (at -9.5 2.5) (size 1.524 1.524) (drill 0.762) (layers *.Cu *.Mask))
  (model "${KIPRJMOD}/3d/mt3608.snapshot.4/MT3608 Converter.STEP"
    (at (xyz 0 0 0))
    (scale (xyz 1 1 1))
    (rotate (xyz -90 0 0))
  )
)
