(kicad_sch (version 20230121) (generator eeschema)

  (uuid be7beebb-b795-4cd9-b70b-94324c9aa8cc)

  (paper "A4")

  (lib_symbols
    (symbol "Connector:8P8C" (pin_names (offset 1.016)) (in_bom yes) (on_board yes)
      (property "Reference" "J" (at -5.08 13.97 0)
        (effects (font (size 1.27 1.27)) (justify right))
      )
      (property "Value" "8P8C" (at 2.54 13.97 0)
        (effects (font (size 1.27 1.27)) (justify left))
      )
      (property "Footprint" "" (at 0 0.635 90)
        (effects (font (size 1.27 1.27)) hide)
      )
      (property "Datasheet" "~" (at 0 0.635 90)
        (effects (font (size 1.27 1.27)) hide)
      )
      (property "ki_keywords" "8P8C RJ female connector" (at 0 0 0)
        (effects (font (size 1.27 1.27)) hide)
      )
      (property "ki_description" "RJ connector, 8P8C (8 positions 8 connected), RJ31/RJ32/RJ33/RJ34/RJ35/RJ41/RJ45/RJ49/RJ61" (at 0 0 0)
        (effects (font (size 1.27 1.27)) hide)
      )
      (property "ki_fp_filters" "8P8C* RJ31* RJ32* RJ33* RJ34* RJ35* RJ41* RJ45* RJ49* RJ61*" (at 0 0 0)
        (effects (font (size 1.27 1.27)) hide)
      )
      (symbol "8P8C_0_1"
        (polyline
          (pts
            (xy -5.08 4.445)
            (xy -6.35 4.445)
          )
          (stroke (width 0) (type default))
          (fill (type none))
        )
        (polyline
          (pts
            (xy -5.08 5.715)
            (xy -6.35 5.715)
          )
          (stroke (width 0) (type default))
          (fill (type none))
        )
        (polyline
          (pts
            (xy -6.35 -3.175)
            (xy -5.08 -3.175)
            (xy -5.08 -3.175)
          )
          (stroke (width 0) (type default))
          (fill (type none))
        )
        (polyline
          (pts
            (xy -6.35 -1.905)
            (xy -5.08 -1.905)
            (xy -5.08 -1.905)
          )
          (stroke (width 0) (type default))
          (fill (type none))
        )
        (polyline
          (pts
            (xy -6.35 -0.635)
            (xy -5.08 -0.635)
            (xy -5.08 -0.635)
          )
          (stroke (width 0) (type default))
          (fill (type none))
        )
        (polyline
          (pts
            (xy -6.35 0.635)
            (xy -5.08 0.635)
            (xy -5.08 0.635)
          )
          (stroke (width 0) (type default))
          (fill (type none))
        )
        (polyline
          (pts
            (xy -6.35 1.905)
            (xy -5.08 1.905)
            (xy -5.08 1.905)
          )
          (stroke (width 0) (type default))
          (fill (type none))
        )
        (polyline
          (pts
            (xy -5.08 3.175)
            (xy -6.35 3.175)
            (xy -6.35 3.175)
          )
          (stroke (width 0) (type default))
          (fill (type none))
        )
        (polyline
          (pts
            (xy -6.35 -4.445)
            (xy -6.35 6.985)
            (xy 3.81 6.985)
            (xy 3.81 4.445)
            (xy 5.08 4.445)
            (xy 5.08 3.175)
            (xy 6.35 3.175)
            (xy 6.35 -0.635)
            (xy 5.08 -0.635)
            (xy 5.08 -1.905)
            (xy 3.81 -1.905)
            (xy 3.81 -4.445)
            (xy -6.35 -4.445)
            (xy -6.35 -4.445)
          )
          (stroke (width 0) (type default))
          (fill (type none))
        )
        (rectangle (start 7.62 12.7) (end -7.62 -10.16)
          (stroke (width 0.254) (type default))
          (fill (type background))
        )
      )
      (symbol "8P8C_1_1"
        (pin passive line (at 10.16 -7.62 180) (length 2.54)
          (name "~" (effects (font (size 1.27 1.27))))
          (number "1" (effects (font (size 1.27 1.27))))
        )
        (pin passive line (at 10.16 -5.08 180) (length 2.54)
          (name "~" (effects (font (size 1.27 1.27))))
          (number "2" (effects (font (size 1.27 1.27))))
        )
        (pin passive line (at 10.16 -2.54 180) (length 2.54)
          (name "~" (effects (font (size 1.27 1.27))))
          (number "3" (effects (font (size 1.27 1.27))))
        )
        (pin passive line (at 10.16 0 180) (length 2.54)
          (name "~" (effects (font (size 1.27 1.27))))
          (number "4" (effects (font (size 1.27 1.27))))
        )
        (pin passive line (at 10.16 2.54 180) (length 2.54)
          (name "~" (effects (font (size 1.27 1.27))))
          (number "5" (effects (font (size 1.27 1.27))))
        )
        (pin passive line (at 10.16 5.08 180) (length 2.54)
          (name "~" (effects (font (size 1.27 1.27))))
          (number "6" (effects (font (size 1.27 1.27))))
        )
        (pin passive line (at 10.16 7.62 180) (length 2.54)
          (name "~" (effects (font (size 1.27 1.27))))
          (number "7" (effects (font (size 1.27 1.27))))
        )
        (pin passive line (at 10.16 10.16 180) (length 2.54)
          (name "~" (effects (font (size 1.27 1.27))))
          (number "8" (effects (font (size 1.27 1.27))))
        )
      )
    )
    (symbol "Connector:Conn_01x03_Male" (pin_names (offset 1.016) hide) (in_bom yes) (on_board yes)
      (property "Reference" "J" (at 0 5.08 0)
        (effects (font (size 1.27 1.27)))
      )
      (property "Value" "Conn_01x03_Male" (at 0 -5.08 0)
        (effects (font (size 1.27 1.27)))
      )
      (property "Footprint" "" (at 0 0 0)
        (effects (font (size 1.27 1.27)) hide)
      )
      (property "Datasheet" "~" (at 0 0 0)
        (effects (font (size 1.27 1.27)) hide)
      )
      (property "ki_keywords" "connector" (at 0 0 0)
        (effects (font (size 1.27 1.27)) hide)
      )
      (property "ki_description" "Generic connector, single row, 01x03, script generated (kicad-library-utils/schlib/autogen/connector/)" (at 0 0 0)
        (effects (font (size 1.27 1.27)) hide)
      )
      (property "ki_fp_filters" "Connector*:*_1x??_*" (at 0 0 0)
        (effects (font (size 1.27 1.27)) hide)
      )
      (symbol "Conn_01x03_Male_1_1"
        (polyline
          (pts
            (xy 1.27 -2.54)
            (xy 0.8636 -2.54)
          )
          (stroke (width 0.1524) (type default))
          (fill (type none))
        )
        (polyline
          (pts
            (xy 1.27 0)
            (xy 0.8636 0)
          )
          (stroke (width 0.1524) (type default))
          (fill (type none))
        )
        (polyline
          (pts
            (xy 1.27 2.54)
            (xy 0.8636 2.54)
          )
          (stroke (width 0.1524) (type default))
          (fill (type none))
        )
        (rectangle (start 0.8636 -2.413) (end 0 -2.667)
          (stroke (width 0.1524) (type default))
          (fill (type outline))
        )
        (rectangle (start 0.8636 0.127) (end 0 -0.127)
          (stroke (width 0.1524) (type default))
          (fill (type outline))
        )
        (rectangle (start 0.8636 2.667) (end 0 2.413)
          (stroke (width 0.1524) (type default))
          (fill (type outline))
        )
        (pin passive line (at 5.08 2.54 180) (length 3.81)
          (name "Pin_1" (effects (font (size 1.27 1.27))))
          (number "1" (effects (font (size 1.27 1.27))))
        )
        (pin passive line (at 5.08 0 180) (length 3.81)
          (name "Pin_2" (effects (font (size 1.27 1.27))))
          (number "2" (effects (font (size 1.27 1.27))))
        )
        (pin passive line (at 5.08 -2.54 180) (length 3.81)
          (name "Pin_3" (effects (font (size 1.27 1.27))))
          (number "3" (effects (font (size 1.27 1.27))))
        )
      )
    )
    (symbol "Connector:Conn_01x04_Male" (pin_names (offset 1.016) hide) (in_bom yes) (on_board yes)
      (property "Reference" "J" (at 0 5.08 0)
        (effects (font (size 1.27 1.27)))
      )
      (property "Value" "Conn_01x04_Male" (at 0 -7.62 0)
        (effects (font (size 1.27 1.27)))
      )
      (property "Footprint" "" (at 0 0 0)
        (effects (font (size 1.27 1.27)) hide)
      )
      (property "Datasheet" "~" (at 0 0 0)
        (effects (font (size 1.27 1.27)) hide)
      )
      (property "ki_keywords" "connector" (at 0 0 0)
        (effects (font (size 1.27 1.27)) hide)
      )
      (property "ki_description" "Generic connector, single row, 01x04, script generated (kicad-library-utils/schlib/autogen/connector/)" (at 0 0 0)
        (effects (font (size 1.27 1.27)) hide)
      )
      (property "ki_fp_filters" "Connector*:*_1x??_*" (at 0 0 0)
        (effects (font (size 1.27 1.27)) hide)
      )
      (symbol "Conn_01x04_Male_1_1"
        (polyline
          (pts
            (xy 1.27 -5.08)
            (xy 0.8636 -5.08)
          )
          (stroke (width 0.1524) (type default))
          (fill (type none))
        )
        (polyline
          (pts
            (xy 1.27 -2.54)
            (xy 0.8636 -2.54)
          )
          (stroke (width 0.1524) (type default))
          (fill (type none))
        )
        (polyline
          (pts
            (xy 1.27 0)
            (xy 0.8636 0)
          )
          (stroke (width 0.1524) (type default))
          (fill (type none))
        )
        (polyline
          (pts
            (xy 1.27 2.54)
            (xy 0.8636 2.54)
          )
          (stroke (width 0.1524) (type default))
          (fill (type none))
        )
        (rectangle (start 0.8636 -4.953) (end 0 -5.207)
          (stroke (width 0.1524) (type default))
          (fill (type outline))
        )
        (rectangle (start 0.8636 -2.413) (end 0 -2.667)
          (stroke (width 0.1524) (type default))
          (fill (type outline))
        )
        (rectangle (start 0.8636 0.127) (end 0 -0.127)
          (stroke (width 0.1524) (type default))
          (fill (type outline))
        )
        (rectangle (start 0.8636 2.667) (end 0 2.413)
          (stroke (width 0.1524) (type default))
          (fill (type outline))
        )
        (pin passive line (at 5.08 2.54 180) (length 3.81)
          (name "Pin_1" (effects (font (size 1.27 1.27))))
          (number "1" (effects (font (size 1.27 1.27))))
        )
        (pin passive line (at 5.08 0 180) (length 3.81)
          (name "Pin_2" (effects (font (size 1.27 1.27))))
          (number "2" (effects (font (size 1.27 1.27))))
        )
        (pin passive line (at 5.08 -2.54 180) (length 3.81)
          (name "Pin_3" (effects (font (size 1.27 1.27))))
          (number "3" (effects (font (size 1.27 1.27))))
        )
        (pin passive line (at 5.08 -5.08 180) (length 3.81)
          (name "Pin_4" (effects (font (size 1.27 1.27))))
          (number "4" (effects (font (size 1.27 1.27))))
        )
      )
    )
    (symbol "Connector:Conn_01x04_Pin" (pin_names (offset 1.016) hide) (in_bom yes) (on_board yes)
      (property "Reference" "J" (at 0 5.08 0)
        (effects (font (size 1.27 1.27)))
      )
      (property "Value" "Conn_01x04_Pin" (at 0 -7.62 0)
        (effects (font (size 1.27 1.27)))
      )
      (property "Footprint" "" (at 0 0 0)
        (effects (font (size 1.27 1.27)) hide)
      )
      (property "Datasheet" "~" (at 0 0 0)
        (effects (font (size 1.27 1.27)) hide)
      )
      (property "ki_locked" "" (at 0 0 0)
        (effects (font (size 1.27 1.27)))
      )
      (property "ki_keywords" "connector" (at 0 0 0)
        (effects (font (size 1.27 1.27)) hide)
      )
      (property "ki_description" "Generic connector, single row, 01x04, script generated" (at 0 0 0)
        (effects (font (size 1.27 1.27)) hide)
      )
      (property "ki_fp_filters" "Connector*:*_1x??_*" (at 0 0 0)
        (effects (font (size 1.27 1.27)) hide)
      )
      (symbol "Conn_01x04_Pin_1_1"
        (polyline
          (pts
            (xy 1.27 -5.08)
            (xy 0.8636 -5.08)
          )
          (stroke (width 0.1524) (type default))
          (fill (type none))
        )
        (polyline
          (pts
            (xy 1.27 -2.54)
            (xy 0.8636 -2.54)
          )
          (stroke (width 0.1524) (type default))
          (fill (type none))
        )
        (polyline
          (pts
            (xy 1.27 0)
            (xy 0.8636 0)
          )
          (stroke (width 0.1524) (type default))
          (fill (type none))
        )
        (polyline
          (pts
            (xy 1.27 2.54)
            (xy 0.8636 2.54)
          )
          (stroke (width 0.1524) (type default))
          (fill (type none))
        )
        (rectangle (start 0.8636 -4.953) (end 0 -5.207)
          (stroke (width 0.1524) (type default))
          (fill (type outline))
        )
        (rectangle (start 0.8636 -2.413) (end 0 -2.667)
          (stroke (width 0.1524) (type default))
          (fill (type outline))
        )
        (rectangle (start 0.8636 0.127) (end 0 -0.127)
          (stroke (width 0.1524) (type default))
          (fill (type outline))
        )
        (rectangle (start 0.8636 2.667) (end 0 2.413)
          (stroke (width 0.1524) (type default))
          (fill (type outline))
        )
        (pin passive line (at 5.08 2.54 180) (length 3.81)
          (name "Pin_1" (effects (font (size 1.27 1.27))))
          (number "1" (effects (font (size 1.27 1.27))))
        )
        (pin passive line (at 5.08 0 180) (length 3.81)
          (name "Pin_2" (effects (font (size 1.27 1.27))))
          (number "2" (effects (font (size 1.27 1.27))))
        )
        (pin passive line (at 5.08 -2.54 180) (length 3.81)
          (name "Pin_3" (effects (font (size 1.27 1.27))))
          (number "3" (effects (font (size 1.27 1.27))))
        )
        (pin passive line (at 5.08 -5.08 180) (length 3.81)
          (name "Pin_4" (effects (font (size 1.27 1.27))))
          (number "4" (effects (font (size 1.27 1.27))))
        )
      )
    )
    (symbol "Connector:Conn_01x08_Male" (pin_names (offset 1.016) hide) (in_bom yes) (on_board yes)
      (property "Reference" "J" (at 0 10.16 0)
        (effects (font (size 1.27 1.27)))
      )
      (property "Value" "Conn_01x08_Male" (at 0 -12.7 0)
        (effects (font (size 1.27 1.27)))
      )
      (property "Footprint" "" (at 0 0 0)
        (effects (font (size 1.27 1.27)) hide)
      )
      (property "Datasheet" "~" (at 0 0 0)
        (effects (font (size 1.27 1.27)) hide)
      )
      (property "ki_keywords" "connector" (at 0 0 0)
        (effects (font (size 1.27 1.27)) hide)
      )
      (property "ki_description" "Generic connector, single row, 01x08, script generated (kicad-library-utils/schlib/autogen/connector/)" (at 0 0 0)
        (effects (font (size 1.27 1.27)) hide)
      )
      (property "ki_fp_filters" "Connector*:*_1x??_*" (at 0 0 0)
        (effects (font (size 1.27 1.27)) hide)
      )
      (symbol "Conn_01x08_Male_1_1"
        (polyline
          (pts
            (xy 1.27 -10.16)
            (xy 0.8636 -10.16)
          )
          (stroke (width 0.1524) (type default))
          (fill (type none))
        )
        (polyline
          (pts
            (xy 1.27 -7.62)
            (xy 0.8636 -7.62)
          )
          (stroke (width 0.1524) (type default))
          (fill (type none))
        )
        (polyline
          (pts
            (xy 1.27 -5.08)
            (xy 0.8636 -5.08)
          )
          (stroke (width 0.1524) (type default))
          (fill (type none))
        )
        (polyline
          (pts
            (xy 1.27 -2.54)
            (xy 0.8636 -2.54)
          )
          (stroke (width 0.1524) (type default))
          (fill (type none))
        )
        (polyline
          (pts
            (xy 1.27 0)
            (xy 0.8636 0)
          )
          (stroke (width 0.1524) (type default))
          (fill (type none))
        )
        (polyline
          (pts
            (xy 1.27 2.54)
            (xy 0.8636 2.54)
          )
          (stroke (width 0.1524) (type default))
          (fill (type none))
        )
        (polyline
          (pts
            (xy 1.27 5.08)
            (xy 0.8636 5.08)
          )
          (stroke (width 0.1524) (type default))
          (fill (type none))
        )
        (polyline
          (pts
            (xy 1.27 7.62)
            (xy 0.8636 7.62)
          )
          (stroke (width 0.1524) (type default))
          (fill (type none))
        )
        (rectangle (start 0.8636 -10.033) (end 0 -10.287)
          (stroke (width 0.1524) (type default))
          (fill (type outline))
        )
        (rectangle (start 0.8636 -7.493) (end 0 -7.747)
          (stroke (width 0.1524) (type default))
          (fill (type outline))
        )
        (rectangle (start 0.8636 -4.953) (end 0 -5.207)
          (stroke (width 0.1524) (type default))
          (fill (type outline))
        )
        (rectangle (start 0.8636 -2.413) (end 0 -2.667)
          (stroke (width 0.1524) (type default))
          (fill (type outline))
        )
        (rectangle (start 0.8636 0.127) (end 0 -0.127)
          (stroke (width 0.1524) (type default))
          (fill (type outline))
        )
        (rectangle (start 0.8636 2.667) (end 0 2.413)
          (stroke (width 0.1524) (type default))
          (fill (type outline))
        )
        (rectangle (start 0.8636 5.207) (end 0 4.953)
          (stroke (width 0.1524) (type default))
          (fill (type outline))
        )
        (rectangle (start 0.8636 7.747) (end 0 7.493)
          (stroke (width 0.1524) (type default))
          (fill (type outline))
        )
        (pin passive line (at 5.08 7.62 180) (length 3.81)
          (name "Pin_1" (effects (font (size 1.27 1.27))))
          (number "1" (effects (font (size 1.27 1.27))))
        )
        (pin passive line (at 5.08 5.08 180) (length 3.81)
          (name "Pin_2" (effects (font (size 1.27 1.27))))
          (number "2" (effects (font (size 1.27 1.27))))
        )
        (pin passive line (at 5.08 2.54 180) (length 3.81)
          (name "Pin_3" (effects (font (size 1.27 1.27))))
          (number "3" (effects (font (size 1.27 1.27))))
        )
        (pin passive line (at 5.08 0 180) (length 3.81)
          (name "Pin_4" (effects (font (size 1.27 1.27))))
          (number "4" (effects (font (size 1.27 1.27))))
        )
        (pin passive line (at 5.08 -2.54 180) (length 3.81)
          (name "Pin_5" (effects (font (size 1.27 1.27))))
          (number "5" (effects (font (size 1.27 1.27))))
        )
        (pin passive line (at 5.08 -5.08 180) (length 3.81)
          (name "Pin_6" (effects (font (size 1.27 1.27))))
          (number "6" (effects (font (size 1.27 1.27))))
        )
        (pin passive line (at 5.08 -7.62 180) (length 3.81)
          (name "Pin_7" (effects (font (size 1.27 1.27))))
          (number "7" (effects (font (size 1.27 1.27))))
        )
        (pin passive line (at 5.08 -10.16 180) (length 3.81)
          (name "Pin_8" (effects (font (size 1.27 1.27))))
          (number "8" (effects (font (size 1.27 1.27))))
        )
      )
    )
    (symbol "Device:LED" (pin_numbers hide) (pin_names (offset 1.016) hide) (in_bom yes) (on_board yes)
      (property "Reference" "D" (at 0 2.54 0)
        (effects (font (size 1.27 1.27)))
      )
      (property "Value" "LED" (at 0 -2.54 0)
        (effects (font (size 1.27 1.27)))
      )
      (property "Footprint" "" (at 0 0 0)
        (effects (font (size 1.27 1.27)) hide)
      )
      (property "Datasheet" "~" (at 0 0 0)
        (effects (font (size 1.27 1.27)) hide)
      )
      (property "ki_keywords" "LED diode" (at 0 0 0)
        (effects (font (size 1.27 1.27)) hide)
      )
      (property "ki_description" "Light emitting diode" (at 0 0 0)
        (effects (font (size 1.27 1.27)) hide)
      )
      (property "ki_fp_filters" "LED* LED_SMD:* LED_THT:*" (at 0 0 0)
        (effects (font (size 1.27 1.27)) hide)
      )
      (symbol "LED_0_1"
        (polyline
          (pts
            (xy -1.27 -1.27)
            (xy -1.27 1.27)
          )
          (stroke (width 0.254) (type default))
          (fill (type none))
        )
        (polyline
          (pts
            (xy -1.27 0)
            (xy 1.27 0)
          )
          (stroke (width 0) (type default))
          (fill (type none))
        )
        (polyline
          (pts
            (xy 1.27 -1.27)
            (xy 1.27 1.27)
            (xy -1.27 0)
            (xy 1.27 -1.27)
          )
          (stroke (width 0.254) (type default))
          (fill (type none))
        )
        (polyline
          (pts
            (xy -3.048 -0.762)
            (xy -4.572 -2.286)
            (xy -3.81 -2.286)
            (xy -4.572 -2.286)
            (xy -4.572 -1.524)
          )
          (stroke (width 0) (type default))
          (fill (type none))
        )
        (polyline
          (pts
            (xy -1.778 -0.762)
            (xy -3.302 -2.286)
            (xy -2.54 -2.286)
            (xy -3.302 -2.286)
            (xy -3.302 -1.524)
          )
          (stroke (width 0) (type default))
          (fill (type none))
        )
      )
      (symbol "LED_1_1"
        (pin passive line (at -3.81 0 0) (length 2.54)
          (name "K" (effects (font (size 1.27 1.27))))
          (number "1" (effects (font (size 1.27 1.27))))
        )
        (pin passive line (at 3.81 0 180) (length 2.54)
          (name "A" (effects (font (size 1.27 1.27))))
          (number "2" (effects (font (size 1.27 1.27))))
        )
      )
    )
    (symbol "Device:R" (pin_numbers hide) (pin_names (offset 0)) (in_bom yes) (on_board yes)
      (property "Reference" "R" (at 2.032 0 90)
        (effects (font (size 1.27 1.27)))
      )
      (property "Value" "R" (at 0 0 90)
        (effects (font (size 1.27 1.27)))
      )
      (property "Footprint" "" (at -1.778 0 90)
        (effects (font (size 1.27 1.27)) hide)
      )
      (property "Datasheet" "~" (at 0 0 0)
        (effects (font (size 1.27 1.27)) hide)
      )
      (property "ki_keywords" "R res resistor" (at 0 0 0)
        (effects (font (size 1.27 1.27)) hide)
      )
      (property "ki_description" "Resistor" (at 0 0 0)
        (effects (font (size 1.27 1.27)) hide)
      )
      (property "ki_fp_filters" "R_*" (at 0 0 0)
        (effects (font (size 1.27 1.27)) hide)
      )
      (symbol "R_0_1"
        (rectangle (start -1.016 -2.54) (end 1.016 2.54)
          (stroke (width 0.254) (type default))
          (fill (type none))
        )
      )
      (symbol "R_1_1"
        (pin passive line (at 0 3.81 270) (length 1.27)
          (name "~" (effects (font (size 1.27 1.27))))
          (number "1" (effects (font (size 1.27 1.27))))
        )
        (pin passive line (at 0 -3.81 90) (length 1.27)
          (name "~" (effects (font (size 1.27 1.27))))
          (number "2" (effects (font (size 1.27 1.27))))
        )
      )
    )
    (symbol "power:GND" (power) (pin_names (offset 0)) (in_bom yes) (on_board yes)
      (property "Reference" "#PWR" (at 0 -6.35 0)
        (effects (font (size 1.27 1.27)) hide)
      )
      (property "Value" "GND" (at 0 -3.81 0)
        (effects (font (size 1.27 1.27)))
      )
      (property "Footprint" "" (at 0 0 0)
        (effects (font (size 1.27 1.27)) hide)
      )
      (property "Datasheet" "" (at 0 0 0)
        (effects (font (size 1.27 1.27)) hide)
      )
      (property "ki_keywords" "global power" (at 0 0 0)
        (effects (font (size 1.27 1.27)) hide)
      )
      (property "ki_description" "Power symbol creates a global label with name \"GND\" , ground" (at 0 0 0)
        (effects (font (size 1.27 1.27)) hide)
      )
      (symbol "GND_0_1"
        (polyline
          (pts
            (xy 0 0)
            (xy 0 -1.27)
            (xy 1.27 -1.27)
            (xy 0 -2.54)
            (xy -1.27 -1.27)
            (xy 0 -1.27)
          )
          (stroke (width 0) (type default))
          (fill (type none))
        )
      )
      (symbol "GND_1_1"
        (pin power_in line (at 0 0 270) (length 0) hide
          (name "GND" (effects (font (size 1.27 1.27))))
          (number "1" (effects (font (size 1.27 1.27))))
        )
      )
    )
  )


  (bus_entry (at 137.16 57.15) (size 2.54 -2.54)
    (stroke (width 0) (type default))
    (uuid 1283ea5a-ba02-48cb-8d1b-f1e388129f2e)
  )
  (bus_entry (at 73.66 69.85) (size -2.54 -2.54)
    (stroke (width 0) (type default))
    (uuid 257b4b0a-4c71-40de-a8a2-c29c6d48630f)
  )
  (bus_entry (at 73.66 52.07) (size -2.54 -2.54)
    (stroke (width 0) (type default))
    (uuid 2a0c7112-ad2c-4a86-a398-0bb81c56ef62)
  )
  (bus_entry (at 137.16 64.77) (size 2.54 -2.54)
    (stroke (width 0) (type default))
    (uuid 3462c7bb-130c-47e2-a781-db16b372d29c)
  )
  (bus_entry (at 73.66 54.61) (size -2.54 -2.54)
    (stroke (width 0) (type default))
    (uuid 36eb4449-4804-43e8-9435-69e317049c03)
  )
  (bus_entry (at 137.16 54.61) (size 2.54 -2.54)
    (stroke (width 0) (type default))
    (uuid 56bd4dbb-a2a4-4d5f-b004-4ed0c3a08ac2)
  )
  (bus_entry (at 137.16 69.85) (size 2.54 -2.54)
    (stroke (width 0) (type default))
    (uuid 58ee730e-7990-4141-b88a-04eedb6ba858)
  )
  (bus_entry (at 73.66 62.23) (size -2.54 -2.54)
    (stroke (width 0) (type default))
    (uuid 5e5eefea-8b1c-4490-b947-e72481f249df)
  )
  (bus_entry (at 137.16 67.31) (size 2.54 -2.54)
    (stroke (width 0) (type default))
    (uuid 86e210bb-5ff3-4e43-9111-d9deec1cb229)
  )
  (bus_entry (at 73.66 57.15) (size -2.54 -2.54)
    (stroke (width 0) (type default))
    (uuid 8d2fec47-ce2d-4d73-9651-1a1408cdc145)
  )
  (bus_entry (at 137.16 59.69) (size 2.54 -2.54)
    (stroke (width 0) (type default))
    (uuid 900944c8-84aa-4309-834c-f9980c5aeaa3)
  )
  (bus_entry (at 137.16 62.23) (size 2.54 -2.54)
    (stroke (width 0) (type default))
    (uuid c2964434-ba67-49c5-8630-7791148a0d73)
  )
  (bus_entry (at 73.66 67.31) (size -2.54 -2.54)
    (stroke (width 0) (type default))
    (uuid c4af36d8-dabc-4ab1-b0d3-43f7110c5449)
  )
  (bus_entry (at 137.16 52.07) (size 2.54 -2.54)
    (stroke (width 0) (type default))
    (uuid c657dcbb-c712-4f78-a011-46cda7f67f88)
  )
  (bus_entry (at 73.66 64.77) (size -2.54 -2.54)
    (stroke (width 0) (type default))
    (uuid fd29e8cf-513a-401f-ac0e-07b24cf9c4e9)
  )
  (bus_entry (at 73.66 59.69) (size -2.54 -2.54)
    (stroke (width 0) (type default))
    (uuid fd4399c0-9fdc-4dd2-9a3f-6792810c9239)
  )

  (bus (pts (xy 73.66 62.23) (xy 73.66 59.69))
    (stroke (width 0) (type default))
    (uuid 01a4d12f-0967-49f3-a119-6527e6e1201d)
  )

  (wire (pts (xy 139.7 93.98) (xy 139.7 95.25))
    (stroke (width 0) (type default))
    (uuid 09592fc0-6ab7-4c4a-947a-c78596470272)
  )
  (wire (pts (xy 62.23 67.31) (xy 71.12 67.31))
    (stroke (width 0) (type default))
    (uuid 0b53d733-6065-4431-a3b7-d9d8754d0e5e)
  )
  (bus (pts (xy 73.66 64.77) (xy 73.66 62.23))
    (stroke (width 0) (type default))
    (uuid 170cacc9-812a-43c6-a887-3044476b1999)
  )

  (wire (pts (xy 62.23 64.77) (xy 71.12 64.77))
    (stroke (width 0) (type default))
    (uuid 1c53de71-fda3-4113-b8a6-325b7c3f1317)
  )
  (wire (pts (xy 71.12 93.98) (xy 71.12 95.25))
    (stroke (width 0) (type default))
    (uuid 1cf705bf-eaaf-4918-ab82-5295f99e4741)
  )
  (bus (pts (xy 137.16 59.69) (xy 137.16 62.23))
    (stroke (width 0) (type default))
    (uuid 1ff8b91a-c838-4176-a5c6-8466e6abc075)
  )

  (wire (pts (xy 139.7 62.23) (xy 149.86 62.23))
    (stroke (width 0) (type default))
    (uuid 28951565-4734-44eb-97f7-3bedcc9ef25d)
  )
  (wire (pts (xy 139.7 59.69) (xy 149.86 59.69))
    (stroke (width 0) (type default))
    (uuid 28b178fe-c527-4aeb-a100-3207851b606b)
  )
  (bus (pts (xy 73.66 59.69) (xy 73.66 57.15))
    (stroke (width 0) (type default))
    (uuid 2900c0e4-8316-4344-ae60-8bcb634e9e6b)
  )

  (wire (pts (xy 139.7 64.77) (xy 149.86 64.77))
    (stroke (width 0) (type default))
    (uuid 29e45ee8-2101-4c42-9148-e7a7666d0643)
  )
  (wire (pts (xy 139.7 54.61) (xy 149.86 54.61))
    (stroke (width 0) (type default))
    (uuid 2d6458a3-76df-4ac5-b43f-b582b33af219)
  )
  (wire (pts (xy 137.16 134.62) (xy 148.59 134.62))
    (stroke (width 0) (type default))
    (uuid 2f8007a4-3204-4acb-9003-a1df89c38a9d)
  )
  (wire (pts (xy 138.43 139.7) (xy 148.59 139.7))
    (stroke (width 0) (type default))
    (uuid 34b195ca-eed9-45cb-9bc1-a975799db251)
  )
  (wire (pts (xy 236.22 50.8) (xy 236.22 54.61))
    (stroke (width 0) (type default))
    (uuid 365796fc-42a4-458a-a530-76bee981712e)
  )
  (wire (pts (xy 62.23 132.08) (xy 68.58 132.08))
    (stroke (width 0) (type default))
    (uuid 37715a1c-dc0b-43e1-93fd-a374204726de)
  )
  (wire (pts (xy 139.7 52.07) (xy 149.86 52.07))
    (stroke (width 0) (type default))
    (uuid 3c7f275d-cd5e-4612-8736-ee6ba0cc80d1)
  )
  (bus (pts (xy 73.66 67.31) (xy 73.66 64.77))
    (stroke (width 0) (type default))
    (uuid 42bae23d-64f1-4b2b-8a82-4747f471e470)
  )

  (wire (pts (xy 62.23 62.23) (xy 71.12 62.23))
    (stroke (width 0) (type default))
    (uuid 49a13c47-11f7-41ee-ae6e-4e4d45323202)
  )
  (wire (pts (xy 62.23 139.7) (xy 68.58 139.7))
    (stroke (width 0) (type default))
    (uuid 4ab4e4bc-7ac0-4ccc-8f6e-ae76c4f60512)
  )
  (wire (pts (xy 139.7 49.53) (xy 149.86 49.53))
    (stroke (width 0) (type default))
    (uuid 4abafb5f-63de-4b07-ab50-2cadd9999417)
  )
  (wire (pts (xy 137.16 88.9) (xy 149.86 88.9))
    (stroke (width 0) (type default))
    (uuid 4f6e83cd-f5c8-4681-a5b4-e164c7200900)
  )
  (wire (pts (xy 247.65 73.66) (xy 247.65 77.47))
    (stroke (width 0) (type default))
    (uuid 526f4370-1d71-42a6-9d35-6acdc8f24cff)
  )
  (wire (pts (xy 139.7 57.15) (xy 149.86 57.15))
    (stroke (width 0) (type default))
    (uuid 533ce30c-dc57-4e4c-9a83-d05a84ffc63e)
  )
  (wire (pts (xy 241.3 50.8) (xy 247.65 50.8))
    (stroke (width 0) (type default))
    (uuid 5a117f2a-03d1-4903-a091-818bd559554b)
  )
  (bus (pts (xy 137.16 67.31) (xy 137.16 69.85))
    (stroke (width 0) (type default))
    (uuid 5acf4207-48a5-4c83-a1f1-20277275c341)
  )
  (bus (pts (xy 137.16 52.07) (xy 137.16 54.61))
    (stroke (width 0) (type default))
    (uuid 5c5a8719-26be-440d-8ee2-dbde74093775)
  )

  (wire (pts (xy 247.65 50.8) (xy 247.65 54.61))
    (stroke (width 0) (type default))
    (uuid 5d834d87-37be-4d09-85de-af1ab8f059ec)
  )
  (wire (pts (xy 138.43 115.57) (xy 148.59 115.57))
    (stroke (width 0) (type default))
    (uuid 5da28c5c-a061-4e25-a09a-4cfbbb882663)
  )
  (bus (pts (xy 137.16 64.77) (xy 137.16 67.31))
    (stroke (width 0) (type default))
    (uuid 61c4fea2-9858-4c59-b7e4-a1a8ac878127)
  )

  (wire (pts (xy 137.16 132.08) (xy 148.59 132.08))
    (stroke (width 0) (type default))
    (uuid 64ffbadb-8b2f-496a-b068-29fa87825b86)
  )
  (bus (pts (xy 137.16 44.45) (xy 137.16 52.07))
    (stroke (width 0) (type default))
    (uuid 673c0c82-eedf-4607-aca6-bfee4ecbf760)
  )

  (wire (pts (xy 63.5 91.44) (xy 68.58 91.44))
    (stroke (width 0) (type default))
    (uuid 6951aa40-17ac-4b15-b9a7-b3e9c707c6ef)
  )
  (wire (pts (xy 228.6 50.8) (xy 236.22 50.8))
    (stroke (width 0) (type default))
    (uuid 6bb3b6d7-f79f-4303-b199-08ca25da4ace)
  )
  (bus (pts (xy 73.66 44.45) (xy 137.16 44.45))
    (stroke (width 0) (type default))
    (uuid 6eeeee15-6f95-4a0c-9fc8-523f8fc2d30b)
  )
  (bus (pts (xy 73.66 54.61) (xy 73.66 52.07))
    (stroke (width 0) (type default))
    (uuid 7401f69c-e0ed-4b78-8743-452d049efe6e)
  )

  (wire (pts (xy 62.23 137.16) (xy 68.58 137.16))
    (stroke (width 0) (type default))
    (uuid 8191a4d7-8be0-4e9a-9edc-c97c45a41e11)
  )
  (wire (pts (xy 62.23 110.49) (xy 67.31 110.49))
    (stroke (width 0) (type default))
    (uuid 81acab10-0329-4907-ab77-97f219ae18d8)
  )
  (wire (pts (xy 62.23 115.57) (xy 69.85 115.57))
    (stroke (width 0) (type default))
    (uuid 877bd8f8-aada-4cb0-9571-596ae4599bb5)
  )
  (bus (pts (xy 73.66 69.85) (xy 73.66 67.31))
    (stroke (width 0) (type default))
    (uuid 8eba7ccc-8770-4a51-af0f-025f306f71e0)
  )

  (wire (pts (xy 62.23 49.53) (xy 71.12 49.53))
    (stroke (width 0) (type default))
    (uuid 92de7b36-c2ae-4754-af45-e5e3648840ec)
  )
  (wire (pts (xy 137.16 91.44) (xy 149.86 91.44))
    (stroke (width 0) (type default))
    (uuid 98b97ca7-e05b-4888-918f-285e75bb9544)
  )
  (wire (pts (xy 139.7 93.98) (xy 149.86 93.98))
    (stroke (width 0) (type default))
    (uuid 9df39ac1-061d-48c8-b352-1e4ec6a5144d)
  )
  (bus (pts (xy 137.16 54.61) (xy 137.16 57.15))
    (stroke (width 0) (type default))
    (uuid a4257862-f9a5-48c8-acf1-e9f53a52eb3b)
  )

  (wire (pts (xy 138.43 113.03) (xy 148.59 113.03))
    (stroke (width 0) (type default))
    (uuid ab73befb-79ae-464a-80d9-a21ee88ba3b5)
  )
  (wire (pts (xy 138.43 139.7) (xy 138.43 142.24))
    (stroke (width 0) (type default))
    (uuid adb586fc-a327-4b0b-bea3-119e6fd3cefa)
  )
  (wire (pts (xy 63.5 93.98) (xy 71.12 93.98))
    (stroke (width 0) (type default))
    (uuid aeb11592-645a-473d-b042-345a83a69a1d)
  )
  (wire (pts (xy 236.22 73.66) (xy 236.22 77.47))
    (stroke (width 0) (type default))
    (uuid b4c28c73-1d85-4d54-830d-97f91a1b296e)
  )
  (wire (pts (xy 236.22 62.23) (xy 236.22 66.04))
    (stroke (width 0) (type default))
    (uuid b5dc1875-fa11-4c51-9055-322c2c420d03)
  )
  (bus (pts (xy 73.66 57.15) (xy 73.66 54.61))
    (stroke (width 0) (type default))
    (uuid b7f757d6-ac07-4827-b915-03941c7f5a5a)
  )

  (wire (pts (xy 62.23 57.15) (xy 71.12 57.15))
    (stroke (width 0) (type default))
    (uuid b9e010be-aa09-4cf3-8ec7-0486995cd681)
  )
  (bus (pts (xy 137.16 62.23) (xy 137.16 64.77))
    (stroke (width 0) (type default))
    (uuid bdfa80e6-614f-451c-84eb-5010db74d65b)
  )

  (wire (pts (xy 139.7 67.31) (xy 149.86 67.31))
    (stroke (width 0) (type default))
    (uuid c584913d-932c-47e8-8406-083d39729298)
  )
  (wire (pts (xy 62.23 134.62) (xy 68.58 134.62))
    (stroke (width 0) (type default))
    (uuid c5e68fed-c65a-46af-b25a-3cda797cca68)
  )
  (bus (pts (xy 137.16 57.15) (xy 137.16 59.69))
    (stroke (width 0) (type default))
    (uuid c74f572e-2439-48fc-a03b-40d074b48fad)
  )

  (wire (pts (xy 62.23 54.61) (xy 71.12 54.61))
    (stroke (width 0) (type default))
    (uuid c9e7b501-ccb5-4985-a945-c10237087987)
  )
  (wire (pts (xy 138.43 110.49) (xy 148.59 110.49))
    (stroke (width 0) (type default))
    (uuid d5ac7859-07c0-40aa-8b2e-eb7648f23679)
  )
  (wire (pts (xy 69.85 115.57) (xy 69.85 118.11))
    (stroke (width 0) (type default))
    (uuid dacf7e14-5f44-4178-9d5f-04160ecda898)
  )
  (wire (pts (xy 62.23 59.69) (xy 71.12 59.69))
    (stroke (width 0) (type default))
    (uuid dcc59ff6-33de-47dc-8e21-282411e44ddc)
  )
  (wire (pts (xy 62.23 107.95) (xy 67.31 107.95))
    (stroke (width 0) (type default))
    (uuid de5aa60d-86b8-4261-887d-f91f1d69861f)
  )
  (wire (pts (xy 247.65 62.23) (xy 247.65 66.04))
    (stroke (width 0) (type default))
    (uuid e088ca7e-f261-4846-98ae-c4b7229a155b)
  )
  (wire (pts (xy 62.23 113.03) (xy 67.31 113.03))
    (stroke (width 0) (type default))
    (uuid e2180b43-cc93-4351-99ca-303af2c02728)
  )
  (wire (pts (xy 138.43 107.95) (xy 148.59 107.95))
    (stroke (width 0) (type default))
    (uuid e3fd0d1b-9452-4975-b8a0-30ce3f27e57f)
  )
  (wire (pts (xy 62.23 52.07) (xy 71.12 52.07))
    (stroke (width 0) (type default))
    (uuid e40e7e37-2103-406b-baeb-c88a3f22f872)
  )
  (wire (pts (xy 137.16 137.16) (xy 148.59 137.16))
    (stroke (width 0) (type default))
    (uuid e5eff179-c094-4c2d-8607-1c94b1d51a29)
  )
  (wire (pts (xy 138.43 115.57) (xy 138.43 118.11))
    (stroke (width 0) (type default))
    (uuid f015f9e9-beda-43e1-9583-c9c70b7a5dd8)
  )
  (wire (pts (xy 63.5 88.9) (xy 68.58 88.9))
    (stroke (width 0) (type default))
    (uuid f08f6fbd-3ab7-4d0f-82cf-dbea9bd12537)
  )
  (wire (pts (xy 68.58 139.7) (xy 68.58 142.24))
    (stroke (width 0) (type default))
    (uuid fa3dd0e3-f4b1-41a3-98a8-af3efe8dfa4e)
  )
  (bus (pts (xy 73.66 52.07) (xy 73.66 44.45))
    (stroke (width 0) (type default))
    (uuid feac0a0e-fade-48f0-8a6b-d0f634d26ceb)
  )

  (rectangle (start 25.4 35.56) (end 66.04 161.29)
    (stroke (width 0) (type default))
    (fill (type none))
    (uuid 179c168b-cbbe-482f-bfb3-f4c0975f6765)
  )
  (rectangle (start 146.05 35.56) (end 186.69 161.29)
    (stroke (width 0) (type default))
    (fill (type none))
    (uuid 76de50b2-7ca3-4252-84d0-2212001d74e7)
  )

  (text "Conectores internos,\nreferencia en minúsculas\nConectores kk-254"
    (at 147.32 157.48 0)
    (effects (font (size 1.27 1.27)) (justify left bottom))
    (uuid 644e8778-0918-4811-8def-bba0b794473e)
  )
  (text "Conectores de acceso externo,\nreferencia en mayúsculas.\nConector de red vertical y\nconectores kk-396\n"
    (at 26.67 158.75 0)
    (effects (font (size 1.27 1.27)) (justify left bottom))
    (uuid ddfad19b-25a8-4982-8c28-ca0f33b9a630)
  )

  (label "Dir1" (at 67.31 107.95 0) (fields_autoplaced)
    (effects (font (size 1.27 1.27)) (justify left bottom))
    (uuid 01a1933e-0543-48d8-8966-e42443324382)
  )
  (label "eth5" (at 67.31 57.15 0) (fields_autoplaced)
    (effects (font (size 1.27 1.27)) (justify left bottom))
    (uuid 0323bd9a-e3b5-4c5b-88a1-07d3272dc2f4)
  )
  (label "eth7" (at 140.97 52.07 0) (fields_autoplaced)
    (effects (font (size 1.27 1.27)) (justify left bottom))
    (uuid 07239057-17a5-4a78-9996-6510ad872843)
  )
  (label "eth8" (at 140.97 49.53 0) (fields_autoplaced)
    (effects (font (size 1.27 1.27)) (justify left bottom))
    (uuid 1268fea6-0cf5-48ea-8d05-4e06c412a189)
  )
  (label "SDA" (at 68.58 134.62 0) (fields_autoplaced)
    (effects (font (size 1.27 1.27)) (justify left bottom))
    (uuid 14f35481-c328-4738-b150-c70092d9cd49)
  )
  (label "eth1" (at 140.97 67.31 0) (fields_autoplaced)
    (effects (font (size 1.27 1.27)) (justify left bottom))
    (uuid 17bca835-8d2e-4454-ab89-f73ad8cbf772)
  )
  (label "eth4" (at 140.97 59.69 0) (fields_autoplaced)
    (effects (font (size 1.27 1.27)) (justify left bottom))
    (uuid 19e824ce-84e8-4992-8f50-37887d9e3052)
  )
  (label "+3.3V" (at 68.58 132.08 0) (fields_autoplaced)
    (effects (font (size 1.27 1.27)) (justify left bottom))
    (uuid 1c7bb57d-a48f-4806-8dcf-e065171e556a)
  )
  (label "eth2" (at 67.31 64.77 0) (fields_autoplaced)
    (effects (font (size 1.27 1.27)) (justify left bottom))
    (uuid 478507e6-c8b9-4e86-b749-24445abdeeef)
  )
  (label "eth5" (at 140.97 57.15 0) (fields_autoplaced)
    (effects (font (size 1.27 1.27)) (justify left bottom))
    (uuid 48f4d1cb-6102-4c84-ad89-b1d6bc895faa)
  )
  (label "SDA" (at 137.16 134.62 0) (fields_autoplaced)
    (effects (font (size 1.27 1.27)) (justify left bottom))
    (uuid 499a097a-f16d-4937-ad4b-141e571a4f36)
  )
  (label "SCL" (at 137.16 137.16 0) (fields_autoplaced)
    (effects (font (size 1.27 1.27)) (justify left bottom))
    (uuid 4e7eae78-60c8-4bb2-bbf1-1dd4d78338fc)
  )
  (label "PCA EN" (at 138.43 113.03 0) (fields_autoplaced)
    (effects (font (size 1.27 1.27)) (justify left bottom))
    (uuid 5d50f5d3-81ce-467f-b047-0be0112285fc)
  )
  (label "eth4" (at 67.31 59.69 0) (fields_autoplaced)
    (effects (font (size 1.27 1.27)) (justify left bottom))
    (uuid 6010a559-a152-43f6-9e2e-c5135625b393)
  )
  (label "Dir2" (at 138.43 110.49 0) (fields_autoplaced)
    (effects (font (size 1.27 1.27)) (justify left bottom))
    (uuid 65bcb828-1210-44f7-83e2-769bb1d123f7)
  )
  (label "+5V Rpi" (at 68.58 88.9 0) (fields_autoplaced)
    (effects (font (size 1.27 1.27)) (justify left bottom))
    (uuid 6f040767-1260-45a4-8bea-293df5abe6ce)
  )
  (label "eth3" (at 140.97 62.23 0) (fields_autoplaced)
    (effects (font (size 1.27 1.27)) (justify left bottom))
    (uuid 74fe19d9-76dd-4d42-95c6-6c34ec45641b)
  )
  (label "eth1" (at 67.31 67.31 0) (fields_autoplaced)
    (effects (font (size 1.27 1.27)) (justify left bottom))
    (uuid 7a5e51c1-9bcc-4b3f-9ad0-cbf4cd90749f)
  )
  (label "SCL" (at 68.58 137.16 0) (fields_autoplaced)
    (effects (font (size 1.27 1.27)) (justify left bottom))
    (uuid 7a7941e5-fe41-4092-9f5b-9b9cca246bc1)
  )
  (label "+5V T" (at 68.58 91.44 0) (fields_autoplaced)
    (effects (font (size 1.27 1.27)) (justify left bottom))
    (uuid 813b1f49-0efc-4a2a-a928-32594081ea11)
  )
  (label "eth6" (at 67.31 54.61 0) (fields_autoplaced)
    (effects (font (size 1.27 1.27)) (justify left bottom))
    (uuid 87323607-a56a-4c43-96f8-e21c2f2a67cf)
  )
  (label "+5V T" (at 241.3 50.8 0) (fields_autoplaced)
    (effects (font (size 1.27 1.27)) (justify left bottom))
    (uuid 89121707-3efc-4a39-b749-74ccc99584f6)
  )
  (label "eth2" (at 140.97 64.77 0) (fields_autoplaced)
    (effects (font (size 1.27 1.27)) (justify left bottom))
    (uuid 89329d55-0700-4d3f-917a-e20296acac6f)
  )
  (label "eth3" (at 67.31 62.23 0) (fields_autoplaced)
    (effects (font (size 1.27 1.27)) (justify left bottom))
    (uuid 8a7e1730-afad-49e1-8ba6-f6ced021996f)
  )
  (label "+3.3V" (at 137.16 132.08 0) (fields_autoplaced)
    (effects (font (size 1.27 1.27)) (justify left bottom))
    (uuid 99509411-6a33-4709-99ee-6f747239ef8f)
  )
  (label "+5V T" (at 137.16 91.44 0) (fields_autoplaced)
    (effects (font (size 1.27 1.27)) (justify left bottom))
    (uuid ab113cbb-9d54-486a-b925-5c25d399b61e)
  )
  (label "+5V Rpi" (at 228.6 50.8 0) (fields_autoplaced)
    (effects (font (size 1.27 1.27)) (justify left bottom))
    (uuid bc3f1cb7-0239-415f-af9f-87ce12402739)
  )
  (label "eth8" (at 67.31 49.53 0) (fields_autoplaced)
    (effects (font (size 1.27 1.27)) (justify left bottom))
    (uuid cc45ee67-0869-4a94-ade3-bdfa02ac4ced)
  )
  (label "eth7" (at 67.31 52.07 0) (fields_autoplaced)
    (effects (font (size 1.27 1.27)) (justify left bottom))
    (uuid d65fcfdc-e031-441a-af8d-4b1fc0af6aca)
  )
  (label "PCA EN" (at 67.31 113.03 0) (fields_autoplaced)
    (effects (font (size 1.27 1.27)) (justify left bottom))
    (uuid d86f6dc7-cbeb-4fdd-8df4-109dd7d1411c)
  )
  (label "Dir2" (at 67.31 110.49 0) (fields_autoplaced)
    (effects (font (size 1.27 1.27)) (justify left bottom))
    (uuid e06b22ae-b451-4caa-ba73-82391a25e19c)
  )
  (label "+5V Rpi" (at 137.16 88.9 0) (fields_autoplaced)
    (effects (font (size 1.27 1.27)) (justify left bottom))
    (uuid f794e4c9-8d46-4571-9947-02ef08c015af)
  )
  (label "Dir1" (at 138.43 107.95 0) (fields_autoplaced)
    (effects (font (size 1.27 1.27)) (justify left bottom))
    (uuid fa4ff50b-0c69-4732-b747-1a9d94b6b3a6)
  )
  (label "eth6" (at 140.97 54.61 0) (fields_autoplaced)
    (effects (font (size 1.27 1.27)) (justify left bottom))
    (uuid fddb98b5-3e6e-497f-b563-48599e922c2a)
  )

  (symbol (lib_id "Connector:Conn_01x04_Male") (at 153.67 137.16 180) (unit 1)
    (in_bom yes) (on_board yes) (dnp no)
    (uuid 1432394f-c192-488f-8077-dedadd51be53)
    (property "Reference" "J8" (at 154.94 134.62 0)
      (effects (font (size 1.27 1.27)) (justify right))
    )
    (property "Value" "i2c" (at 154.94 137.16 0)
      (effects (font (size 1.27 1.27)) (justify right))
    )
    (property "Footprint" "Connector_Molex:Molex_KK-254_AE-6410-04A_1x04_P2.54mm_Vertical" (at 153.67 137.16 0)
      (effects (font (size 1.27 1.27)) hide)
    )
    (property "Datasheet" "~" (at 153.67 137.16 0)
      (effects (font (size 1.27 1.27)) hide)
    )
    (pin "1" (uuid 6cc5a936-9222-4480-8e3c-b8e771c4e17e))
    (pin "2" (uuid 6c57a9eb-ced1-4779-bf0d-96cc0e800b2a))
    (pin "3" (uuid bbea1be7-0c1e-4fcf-b1b4-00c05c38200c))
    (pin "4" (uuid de3ab684-da2a-4b85-ad37-dc86342cf3b6))
    (instances
      (project "M5"
        (path "/be7beebb-b795-4cd9-b70b-94324c9aa8cc"
          (reference "J8") (unit 1)
        )
      )
    )
  )

  (symbol (lib_id "Device:R") (at 247.65 58.42 0) (unit 1)
    (in_bom yes) (on_board yes) (dnp no) (fields_autoplaced)
    (uuid 2783261c-5b05-4b8c-a01e-f0749d2f1991)
    (property "Reference" "R2" (at 250.19 57.15 0)
      (effects (font (size 1.27 1.27)) (justify left))
    )
    (property "Value" "330" (at 250.19 59.69 0)
      (effects (font (size 1.27 1.27)) (justify left))
    )
    (property "Footprint" "Resistor_THT:R_Axial_DIN0207_L6.3mm_D2.5mm_P10.16mm_Horizontal" (at 245.872 58.42 90)
      (effects (font (size 1.27 1.27)) hide)
    )
    (property "Datasheet" "~" (at 247.65 58.42 0)
      (effects (font (size 1.27 1.27)) hide)
    )
    (pin "1" (uuid 7c4f6270-ac32-4cb5-9259-09242bb448e4))
    (pin "2" (uuid c305f71b-6fb8-4397-b143-99c950f12d0f))
    (instances
      (project "M5"
        (path "/be7beebb-b795-4cd9-b70b-94324c9aa8cc"
          (reference "R2") (unit 1)
        )
      )
    )
  )

  (symbol (lib_id "power:GND") (at 71.12 95.25 0) (unit 1)
    (in_bom yes) (on_board yes) (dnp no) (fields_autoplaced)
    (uuid 37d8ce24-c5e2-41fa-a0e6-1aa8693b19fa)
    (property "Reference" "#PWR04" (at 71.12 101.6 0)
      (effects (font (size 1.27 1.27)) hide)
    )
    (property "Value" "GND" (at 71.12 100.33 0)
      (effects (font (size 1.27 1.27)))
    )
    (property "Footprint" "" (at 71.12 95.25 0)
      (effects (font (size 1.27 1.27)) hide)
    )
    (property "Datasheet" "" (at 71.12 95.25 0)
      (effects (font (size 1.27 1.27)) hide)
    )
    (pin "1" (uuid fe418090-2d73-45cb-9b06-76e818d57da8))
    (instances
      (project "M5"
        (path "/be7beebb-b795-4cd9-b70b-94324c9aa8cc"
          (reference "#PWR04") (unit 1)
        )
      )
    )
  )

  (symbol (lib_id "power:GND") (at 236.22 77.47 0) (unit 1)
    (in_bom yes) (on_board yes) (dnp no) (fields_autoplaced)
    (uuid 383d89d1-4f30-4b21-87a2-84382276c493)
    (property "Reference" "#PWR07" (at 236.22 83.82 0)
      (effects (font (size 1.27 1.27)) hide)
    )
    (property "Value" "GND" (at 236.22 82.55 0)
      (effects (font (size 1.27 1.27)))
    )
    (property "Footprint" "" (at 236.22 77.47 0)
      (effects (font (size 1.27 1.27)) hide)
    )
    (property "Datasheet" "" (at 236.22 77.47 0)
      (effects (font (size 1.27 1.27)) hide)
    )
    (pin "1" (uuid 987274a4-230e-4ba0-9e5a-d5b7e548c79d))
    (instances
      (project "M5"
        (path "/be7beebb-b795-4cd9-b70b-94324c9aa8cc"
          (reference "#PWR07") (unit 1)
        )
      )
    )
  )

  (symbol (lib_id "Connector:Conn_01x04_Pin") (at 57.15 113.03 0) (mirror x) (unit 1)
    (in_bom yes) (on_board yes) (dnp no)
    (uuid 603f40bb-6695-48b3-932d-032c2d39be46)
    (property "Reference" "J5" (at 55.88 110.49 0)
      (effects (font (size 1.27 1.27)) (justify right))
    )
    (property "Value" "MOTOR DIR" (at 55.88 113.03 0)
      (effects (font (size 1.27 1.27)) (justify right))
    )
    (property "Footprint" "Connector_Molex:Molex_KK-396_5273-04A_1x04_P3.96mm_Vertical" (at 57.15 113.03 0)
      (effects (font (size 1.27 1.27)) hide)
    )
    (property "Datasheet" "~" (at 57.15 113.03 0)
      (effects (font (size 1.27 1.27)) hide)
    )
    (pin "1" (uuid 14c21a59-ea91-47c1-ae9c-3fb91ba0551d))
    (pin "2" (uuid 66c36920-9a4c-4bf2-81de-92cb656734ea))
    (pin "3" (uuid c0f7f546-c122-4fc7-90dd-eeb5afdf642b))
    (pin "4" (uuid cc4c6c3e-374d-46bc-8bed-34c40081eb8a))
    (instances
      (project "M5"
        (path "/be7beebb-b795-4cd9-b70b-94324c9aa8cc"
          (reference "J5") (unit 1)
        )
      )
    )
  )

  (symbol (lib_id "power:GND") (at 138.43 142.24 0) (unit 1)
    (in_bom yes) (on_board yes) (dnp no) (fields_autoplaced)
    (uuid 69ef840c-4107-4735-b68f-78da06b4ecca)
    (property "Reference" "#PWR03" (at 138.43 148.59 0)
      (effects (font (size 1.27 1.27)) hide)
    )
    (property "Value" "GND" (at 138.43 147.32 0)
      (effects (font (size 1.27 1.27)))
    )
    (property "Footprint" "" (at 138.43 142.24 0)
      (effects (font (size 1.27 1.27)) hide)
    )
    (property "Datasheet" "" (at 138.43 142.24 0)
      (effects (font (size 1.27 1.27)) hide)
    )
    (pin "1" (uuid b387cfc7-d077-4480-ba11-76e0be981f13))
    (instances
      (project "M5"
        (path "/be7beebb-b795-4cd9-b70b-94324c9aa8cc"
          (reference "#PWR03") (unit 1)
        )
      )
    )
  )

  (symbol (lib_id "power:GND") (at 68.58 142.24 0) (unit 1)
    (in_bom yes) (on_board yes) (dnp no) (fields_autoplaced)
    (uuid 6d5e3e66-042a-4443-a768-bcd76941e194)
    (property "Reference" "#PWR06" (at 68.58 148.59 0)
      (effects (font (size 1.27 1.27)) hide)
    )
    (property "Value" "GND" (at 68.58 147.32 0)
      (effects (font (size 1.27 1.27)))
    )
    (property "Footprint" "" (at 68.58 142.24 0)
      (effects (font (size 1.27 1.27)) hide)
    )
    (property "Datasheet" "" (at 68.58 142.24 0)
      (effects (font (size 1.27 1.27)) hide)
    )
    (pin "1" (uuid 761d37af-c324-4e0e-ab55-50c97925cc6a))
    (instances
      (project "M5"
        (path "/be7beebb-b795-4cd9-b70b-94324c9aa8cc"
          (reference "#PWR06") (unit 1)
        )
      )
    )
  )

  (symbol (lib_id "Device:R") (at 236.22 58.42 0) (unit 1)
    (in_bom yes) (on_board yes) (dnp no) (fields_autoplaced)
    (uuid 74f17009-3579-4660-9927-2c7cfcfeb06e)
    (property "Reference" "R1" (at 238.76 57.15 0)
      (effects (font (size 1.27 1.27)) (justify left))
    )
    (property "Value" "330" (at 238.76 59.69 0)
      (effects (font (size 1.27 1.27)) (justify left))
    )
    (property "Footprint" "Resistor_THT:R_Axial_DIN0207_L6.3mm_D2.5mm_P10.16mm_Horizontal" (at 234.442 58.42 90)
      (effects (font (size 1.27 1.27)) hide)
    )
    (property "Datasheet" "~" (at 236.22 58.42 0)
      (effects (font (size 1.27 1.27)) hide)
    )
    (pin "1" (uuid 2076e39a-6c71-4bd4-8b26-5e0c30782ef3))
    (pin "2" (uuid 6a898700-6e18-427b-b1c0-fbfafa4db3f6))
    (instances
      (project "M5"
        (path "/be7beebb-b795-4cd9-b70b-94324c9aa8cc"
          (reference "R1") (unit 1)
        )
      )
    )
  )

  (symbol (lib_id "Device:LED") (at 236.22 69.85 90) (unit 1)
    (in_bom yes) (on_board yes) (dnp no) (fields_autoplaced)
    (uuid 7c9e74d4-c7fe-4e8f-aae1-706bc3646639)
    (property "Reference" "D1" (at 240.03 70.1675 90)
      (effects (font (size 1.27 1.27)) (justify right))
    )
    (property "Value" "LED" (at 240.03 72.7075 90)
      (effects (font (size 1.27 1.27)) (justify right))
    )
    (property "Footprint" "LED_THT:LED_D3.0mm" (at 236.22 69.85 0)
      (effects (font (size 1.27 1.27)) hide)
    )
    (property "Datasheet" "~" (at 236.22 69.85 0)
      (effects (font (size 1.27 1.27)) hide)
    )
    (pin "1" (uuid 87ae50bb-841e-4f72-8648-630136fdba63))
    (pin "2" (uuid c140a256-be00-41aa-875e-fdd98021f306))
    (instances
      (project "M5"
        (path "/be7beebb-b795-4cd9-b70b-94324c9aa8cc"
          (reference "D1") (unit 1)
        )
      )
    )
  )

  (symbol (lib_id "Connector:Conn_01x04_Pin") (at 153.67 113.03 180) (unit 1)
    (in_bom yes) (on_board yes) (dnp no)
    (uuid 7fba2278-ee2a-4ed5-9992-cfbae1fb890a)
    (property "Reference" "J6" (at 156.21 114.3 0)
      (effects (font (size 1.27 1.27)))
    )
    (property "Value" "motor dir" (at 160.02 111.76 0)
      (effects (font (size 1.27 1.27)))
    )
    (property "Footprint" "Connector_Molex:Molex_KK-254_AE-6410-04A_1x04_P2.54mm_Vertical" (at 153.67 113.03 0)
      (effects (font (size 1.27 1.27)) hide)
    )
    (property "Datasheet" "~" (at 153.67 113.03 0)
      (effects (font (size 1.27 1.27)) hide)
    )
    (pin "1" (uuid bcf62a1a-951e-4ccb-a43b-28aa065ad92b))
    (pin "2" (uuid f09f52c7-d65a-43a1-bb85-dc201854a8b8))
    (pin "3" (uuid 14a5e319-0ff3-43d9-994f-e406bd08bc81))
    (pin "4" (uuid 3fd68f65-783f-4de8-a3fc-98d66e2f8fc3))
    (instances
      (project "M5"
        (path "/be7beebb-b795-4cd9-b70b-94324c9aa8cc"
          (reference "J6") (unit 1)
        )
      )
    )
  )

  (symbol (lib_id "power:GND") (at 139.7 95.25 0) (unit 1)
    (in_bom yes) (on_board yes) (dnp no) (fields_autoplaced)
    (uuid ad0d5209-9641-4f0a-a1da-b6bf244ac057)
    (property "Reference" "#PWR01" (at 139.7 101.6 0)
      (effects (font (size 1.27 1.27)) hide)
    )
    (property "Value" "GND" (at 139.7 100.33 0)
      (effects (font (size 1.27 1.27)))
    )
    (property "Footprint" "" (at 139.7 95.25 0)
      (effects (font (size 1.27 1.27)) hide)
    )
    (property "Datasheet" "" (at 139.7 95.25 0)
      (effects (font (size 1.27 1.27)) hide)
    )
    (pin "1" (uuid 34f3a598-30ba-4974-a660-45ebadf3de4d))
    (instances
      (project "M5"
        (path "/be7beebb-b795-4cd9-b70b-94324c9aa8cc"
          (reference "#PWR01") (unit 1)
        )
      )
    )
  )

  (symbol (lib_id "Connector:Conn_01x08_Male") (at 154.94 59.69 180) (unit 1)
    (in_bom yes) (on_board yes) (dnp no) (fields_autoplaced)
    (uuid b0ceaf6a-8966-4d3b-9d50-a7f96a1f3827)
    (property "Reference" "J2" (at 156.21 57.15 0)
      (effects (font (size 1.27 1.27)) (justify right))
    )
    (property "Value" "ethernet" (at 156.21 59.69 0)
      (effects (font (size 1.27 1.27)) (justify right))
    )
    (property "Footprint" "Connector_Molex:Molex_KK-254_AE-6410-08A_1x08_P2.54mm_Vertical" (at 154.94 59.69 0)
      (effects (font (size 1.27 1.27)) hide)
    )
    (property "Datasheet" "~" (at 154.94 59.69 0)
      (effects (font (size 1.27 1.27)) hide)
    )
    (pin "1" (uuid 33aee57e-b566-4b35-8fcc-62c36cbadab7))
    (pin "2" (uuid 626e343c-f84f-431d-9ce3-b1d1f77881c2))
    (pin "3" (uuid 473b0a17-4b1c-469a-9b63-ae33b2364257))
    (pin "4" (uuid a21dbd24-48d0-4cba-8e9e-3630feb45e9a))
    (pin "5" (uuid bce6d905-8330-41dd-b56f-2ac681dd8c97))
    (pin "6" (uuid bbf680f4-8f0f-4e79-9441-becff9ad0cb5))
    (pin "7" (uuid 3caa9542-7093-4655-8899-321580ab6dd2))
    (pin "8" (uuid 5842fbaf-8f3a-4e0a-8e07-1a1c27cae7f6))
    (instances
      (project "M5"
        (path "/be7beebb-b795-4cd9-b70b-94324c9aa8cc"
          (reference "J2") (unit 1)
        )
      )
    )
  )

  (symbol (lib_id "Connector:Conn_01x03_Male") (at 154.94 91.44 180) (unit 1)
    (in_bom yes) (on_board yes) (dnp no)
    (uuid bc8084f1-61b1-46de-bf94-a9ef1d4dc53d)
    (property "Reference" "J4" (at 156.21 92.71 0)
      (effects (font (size 1.27 1.27)) (justify right))
    )
    (property "Value" "vcc" (at 156.21 90.17 0)
      (effects (font (size 1.27 1.27)) (justify right))
    )
    (property "Footprint" "Connector_Molex:Molex_KK-396_5273-03A_1x03_P3.96mm_Vertical" (at 154.94 91.44 0)
      (effects (font (size 1.27 1.27)) hide)
    )
    (property "Datasheet" "~" (at 154.94 91.44 0)
      (effects (font (size 1.27 1.27)) hide)
    )
    (pin "1" (uuid 7ce80e4f-7eaf-434f-84e1-b94a29904cf5))
    (pin "2" (uuid a6f5f484-659b-4cc5-8b41-0595872d978b))
    (pin "3" (uuid 4659f80e-e2e4-443d-9436-8d4809eebe5a))
    (instances
      (project "M5"
        (path "/be7beebb-b795-4cd9-b70b-94324c9aa8cc"
          (reference "J4") (unit 1)
        )
      )
    )
  )

  (symbol (lib_id "Connector:Conn_01x03_Male") (at 58.42 91.44 0) (mirror x) (unit 1)
    (in_bom yes) (on_board yes) (dnp no)
    (uuid bcd66670-38ca-4a00-9eaa-1940ebedb4a8)
    (property "Reference" "J3" (at 55.88 92.71 0)
      (effects (font (size 1.27 1.27)))
    )
    (property "Value" "VCC" (at 55.88 90.17 0)
      (effects (font (size 1.27 1.27)))
    )
    (property "Footprint" "Connector_Molex:Molex_KK-396_5273-03A_1x03_P3.96mm_Vertical" (at 58.42 91.44 0)
      (effects (font (size 1.27 1.27)) hide)
    )
    (property "Datasheet" "~" (at 58.42 91.44 0)
      (effects (font (size 1.27 1.27)) hide)
    )
    (pin "1" (uuid f33b2057-bdf8-4855-a35a-434fd4ae2695))
    (pin "2" (uuid cc15372d-1d7a-44a0-9104-b9165dd57d40))
    (pin "3" (uuid 3c0195e8-237d-4526-bdc0-b0cef0020af1))
    (instances
      (project "M5"
        (path "/be7beebb-b795-4cd9-b70b-94324c9aa8cc"
          (reference "J3") (unit 1)
        )
      )
    )
  )

  (symbol (lib_id "Connector:Conn_01x04_Male") (at 57.15 137.16 0) (mirror x) (unit 1)
    (in_bom yes) (on_board yes) (dnp no)
    (uuid cd419d74-dbc5-4a73-aab6-1afff2ad34e8)
    (property "Reference" "J7" (at 55.88 134.62 0)
      (effects (font (size 1.27 1.27)) (justify right))
    )
    (property "Value" "I2C" (at 55.88 137.16 0)
      (effects (font (size 1.27 1.27)) (justify right))
    )
    (property "Footprint" "Connector_Molex:Molex_KK-396_5273-04A_1x04_P3.96mm_Vertical" (at 57.15 137.16 0)
      (effects (font (size 1.27 1.27)) hide)
    )
    (property "Datasheet" "~" (at 57.15 137.16 0)
      (effects (font (size 1.27 1.27)) hide)
    )
    (pin "1" (uuid 6b383a36-ce84-4df2-bd87-98673b68cacd))
    (pin "2" (uuid 7caa1589-de70-4448-8000-800e191e632c))
    (pin "3" (uuid da1e71c0-976d-4441-8790-00ef8fba4b03))
    (pin "4" (uuid a8734307-ba22-472a-928e-0e937dc9016c))
    (instances
      (project "M5"
        (path "/be7beebb-b795-4cd9-b70b-94324c9aa8cc"
          (reference "J7") (unit 1)
        )
      )
    )
  )

  (symbol (lib_id "Device:LED") (at 247.65 69.85 90) (unit 1)
    (in_bom yes) (on_board yes) (dnp no) (fields_autoplaced)
    (uuid d6ae3cb6-289e-4f80-a46a-67efb54e5095)
    (property "Reference" "D2" (at 251.46 70.1675 90)
      (effects (font (size 1.27 1.27)) (justify right))
    )
    (property "Value" "LED" (at 251.46 72.7075 90)
      (effects (font (size 1.27 1.27)) (justify right))
    )
    (property "Footprint" "LED_THT:LED_D3.0mm" (at 247.65 69.85 0)
      (effects (font (size 1.27 1.27)) hide)
    )
    (property "Datasheet" "~" (at 247.65 69.85 0)
      (effects (font (size 1.27 1.27)) hide)
    )
    (pin "1" (uuid be1380e0-e157-4678-9475-4d46edad19af))
    (pin "2" (uuid 707f955b-212f-434a-adaf-be1ab2573b6f))
    (instances
      (project "M5"
        (path "/be7beebb-b795-4cd9-b70b-94324c9aa8cc"
          (reference "D2") (unit 1)
        )
      )
    )
  )

  (symbol (lib_id "power:GND") (at 247.65 77.47 0) (unit 1)
    (in_bom yes) (on_board yes) (dnp no) (fields_autoplaced)
    (uuid da85e80a-9db1-4b21-92a6-5e38690909be)
    (property "Reference" "#PWR08" (at 247.65 83.82 0)
      (effects (font (size 1.27 1.27)) hide)
    )
    (property "Value" "GND" (at 247.65 82.55 0)
      (effects (font (size 1.27 1.27)))
    )
    (property "Footprint" "" (at 247.65 77.47 0)
      (effects (font (size 1.27 1.27)) hide)
    )
    (property "Datasheet" "" (at 247.65 77.47 0)
      (effects (font (size 1.27 1.27)) hide)
    )
    (pin "1" (uuid 34927db8-88f9-44ba-ae06-6e736a57a95d))
    (instances
      (project "M5"
        (path "/be7beebb-b795-4cd9-b70b-94324c9aa8cc"
          (reference "#PWR08") (unit 1)
        )
      )
    )
  )

  (symbol (lib_id "power:GND") (at 138.43 118.11 0) (unit 1)
    (in_bom yes) (on_board yes) (dnp no) (fields_autoplaced)
    (uuid e7de6ff6-f332-4611-a943-dac276e2f673)
    (property "Reference" "#PWR02" (at 138.43 124.46 0)
      (effects (font (size 1.27 1.27)) hide)
    )
    (property "Value" "GND" (at 138.43 123.19 0)
      (effects (font (size 1.27 1.27)))
    )
    (property "Footprint" "" (at 138.43 118.11 0)
      (effects (font (size 1.27 1.27)) hide)
    )
    (property "Datasheet" "" (at 138.43 118.11 0)
      (effects (font (size 1.27 1.27)) hide)
    )
    (pin "1" (uuid e753b933-a536-40c5-bb0e-76067e1283bf))
    (instances
      (project "M5"
        (path "/be7beebb-b795-4cd9-b70b-94324c9aa8cc"
          (reference "#PWR02") (unit 1)
        )
      )
    )
  )

  (symbol (lib_id "power:GND") (at 69.85 118.11 0) (unit 1)
    (in_bom yes) (on_board yes) (dnp no) (fields_autoplaced)
    (uuid ee6bfa0e-0df7-4b06-9a6f-924e68109b47)
    (property "Reference" "#PWR05" (at 69.85 124.46 0)
      (effects (font (size 1.27 1.27)) hide)
    )
    (property "Value" "GND" (at 69.85 123.19 0)
      (effects (font (size 1.27 1.27)))
    )
    (property "Footprint" "" (at 69.85 118.11 0)
      (effects (font (size 1.27 1.27)) hide)
    )
    (property "Datasheet" "" (at 69.85 118.11 0)
      (effects (font (size 1.27 1.27)) hide)
    )
    (pin "1" (uuid c732e057-f412-4790-9383-51c40a330ea4))
    (instances
      (project "M5"
        (path "/be7beebb-b795-4cd9-b70b-94324c9aa8cc"
          (reference "#PWR05") (unit 1)
        )
      )
    )
  )

  (symbol (lib_id "Connector:8P8C") (at 52.07 59.69 0) (unit 1)
    (in_bom yes) (on_board yes) (dnp no) (fields_autoplaced)
    (uuid fa8a4392-5aa0-496b-9709-c02a2b6339c4)
    (property "Reference" "J1" (at 52.07 41.91 0)
      (effects (font (size 1.27 1.27)))
    )
    (property "Value" "ETHERNET" (at 52.07 44.45 0)
      (effects (font (size 1.27 1.27)))
    )
    (property "Footprint" "Connector_RJ:RJ45_OST_PJ012-8P8CX_Vertical" (at 52.07 59.055 90)
      (effects (font (size 1.27 1.27)) hide)
    )
    (property "Datasheet" "~" (at 52.07 59.055 90)
      (effects (font (size 1.27 1.27)) hide)
    )
    (pin "1" (uuid 72faf149-4ab6-4495-a5ff-b1c0b0e9e7c2))
    (pin "2" (uuid f0c5f175-3b9a-405c-91fc-fa1d08fa9808))
    (pin "3" (uuid 0164ea2a-3f19-48da-a577-8e065714d081))
    (pin "4" (uuid b4d0ee9f-4523-48ee-b3fb-58cf0b106195))
    (pin "5" (uuid f7e719a6-70d1-499e-a7e6-fa55b87facf6))
    (pin "6" (uuid 12daad7d-3a9a-438d-b8d0-85971aca4097))
    (pin "7" (uuid 750c2aa3-26be-468c-afcb-90b0691e47fa))
    (pin "8" (uuid c90fd585-975b-43dd-82d7-5e743581fc3e))
    (instances
      (project "M5"
        (path "/be7beebb-b795-4cd9-b70b-94324c9aa8cc"
          (reference "J1") (unit 1)
        )
      )
    )
  )

  (sheet_instances
    (path "/" (page "1"))
  )
)
