(kicad_sch
	(version 20231120)
	(generator "eeschema")
	(generator_version "8.0")
	(uuid "a917e773-fe08-452a-936e-0e183dd66cda")
	(paper "A4")
	(lib_symbols
		(symbol "Connector:Conn_01x05_Pin"
			(pin_names
				(offset 1.016) hide)
			(exclude_from_sim no)
			(in_bom yes)
			(on_board yes)
			(property "Reference" "J"
				(at 0 7.62 0)
				(effects
					(font
						(size 1.27 1.27)
					)
				)
			)
			(property "Value" "Conn_01x05_Pin"
				(at 0 -7.62 0)
				(effects
					(font
						(size 1.27 1.27)
					)
				)
			)
			(property "Footprint" ""
				(at 0 0 0)
				(effects
					(font
						(size 1.27 1.27)
					)
					(hide yes)
				)
			)
			(property "Datasheet" "~"
				(at 0 0 0)
				(effects
					(font
						(size 1.27 1.27)
					)
					(hide yes)
				)
			)
			(property "Description" "Generic connector, single row, 01x05, script generated"
				(at 0 0 0)
				(effects
					(font
						(size 1.27 1.27)
					)
					(hide yes)
				)
			)
			(property "ki_locked" ""
				(at 0 0 0)
				(effects
					(font
						(size 1.27 1.27)
					)
				)
			)
			(property "ki_keywords" "connector"
				(at 0 0 0)
				(effects
					(font
						(size 1.27 1.27)
					)
					(hide yes)
				)
			)
			(property "ki_fp_filters" "Connector*:*_1x??_*"
				(at 0 0 0)
				(effects
					(font
						(size 1.27 1.27)
					)
					(hide yes)
				)
			)
			(symbol "Conn_01x05_Pin_1_1"
				(polyline
					(pts
						(xy 1.27 -5.08) (xy 0.8636 -5.08)
					)
					(stroke
						(width 0.1524)
						(type default)
					)
					(fill
						(type none)
					)
				)
				(polyline
					(pts
						(xy 1.27 -2.54) (xy 0.8636 -2.54)
					)
					(stroke
						(width 0.1524)
						(type default)
					)
					(fill
						(type none)
					)
				)
				(polyline
					(pts
						(xy 1.27 0) (xy 0.8636 0)
					)
					(stroke
						(width 0.1524)
						(type default)
					)
					(fill
						(type none)
					)
				)
				(polyline
					(pts
						(xy 1.27 2.54) (xy 0.8636 2.54)
					)
					(stroke
						(width 0.1524)
						(type default)
					)
					(fill
						(type none)
					)
				)
				(polyline
					(pts
						(xy 1.27 5.08) (xy 0.8636 5.08)
					)
					(stroke
						(width 0.1524)
						(type default)
					)
					(fill
						(type none)
					)
				)
				(rectangle
					(start 0.8636 -4.953)
					(end 0 -5.207)
					(stroke
						(width 0.1524)
						(type default)
					)
					(fill
						(type outline)
					)
				)
				(rectangle
					(start 0.8636 -2.413)
					(end 0 -2.667)
					(stroke
						(width 0.1524)
						(type default)
					)
					(fill
						(type outline)
					)
				)
				(rectangle
					(start 0.8636 0.127)
					(end 0 -0.127)
					(stroke
						(width 0.1524)
						(type default)
					)
					(fill
						(type outline)
					)
				)
				(rectangle
					(start 0.8636 2.667)
					(end 0 2.413)
					(stroke
						(width 0.1524)
						(type default)
					)
					(fill
						(type outline)
					)
				)
				(rectangle
					(start 0.8636 5.207)
					(end 0 4.953)
					(stroke
						(width 0.1524)
						(type default)
					)
					(fill
						(type outline)
					)
				)
				(pin passive line
					(at 5.08 5.08 180)
					(length 3.81)
					(name "Pin_1"
						(effects
							(font
								(size 1.27 1.27)
							)
						)
					)
					(number "1"
						(effects
							(font
								(size 1.27 1.27)
							)
						)
					)
				)
				(pin passive line
					(at 5.08 2.54 180)
					(length 3.81)
					(name "Pin_2"
						(effects
							(font
								(size 1.27 1.27)
							)
						)
					)
					(number "2"
						(effects
							(font
								(size 1.27 1.27)
							)
						)
					)
				)
				(pin passive line
					(at 5.08 0 180)
					(length 3.81)
					(name "Pin_3"
						(effects
							(font
								(size 1.27 1.27)
							)
						)
					)
					(number "3"
						(effects
							(font
								(size 1.27 1.27)
							)
						)
					)
				)
				(pin passive line
					(at 5.08 -2.54 180)
					(length 3.81)
					(name "Pin_4"
						(effects
							(font
								(size 1.27 1.27)
							)
						)
					)
					(number "4"
						(effects
							(font
								(size 1.27 1.27)
							)
						)
					)
				)
				(pin passive line
					(at 5.08 -5.08 180)
					(length 3.81)
					(name "Pin_5"
						(effects
							(font
								(size 1.27 1.27)
							)
						)
					)
					(number "5"
						(effects
							(font
								(size 1.27 1.27)
							)
						)
					)
				)
			)
		)
		(symbol "Connector:Screw_Terminal_01x02"
			(pin_names
				(offset 1.016) hide)
			(exclude_from_sim no)
			(in_bom yes)
			(on_board yes)
			(property "Reference" "J"
				(at 0 2.54 0)
				(effects
					(font
						(size 1.27 1.27)
					)
				)
			)
			(property "Value" "Screw_Terminal_01x02"
				(at 0 -5.08 0)
				(effects
					(font
						(size 1.27 1.27)
					)
				)
			)
			(property "Footprint" ""
				(at 0 0 0)
				(effects
					(font
						(size 1.27 1.27)
					)
					(hide yes)
				)
			)
			(property "Datasheet" "~"
				(at 0 0 0)
				(effects
					(font
						(size 1.27 1.27)
					)
					(hide yes)
				)
			)
			(property "Description" "Generic screw terminal, single row, 01x02, script generated (kicad-library-utils/schlib/autogen/connector/)"
				(at 0 0 0)
				(effects
					(font
						(size 1.27 1.27)
					)
					(hide yes)
				)
			)
			(property "ki_keywords" "screw terminal"
				(at 0 0 0)
				(effects
					(font
						(size 1.27 1.27)
					)
					(hide yes)
				)
			)
			(property "ki_fp_filters" "TerminalBlock*:*"
				(at 0 0 0)
				(effects
					(font
						(size 1.27 1.27)
					)
					(hide yes)
				)
			)
			(symbol "Screw_Terminal_01x02_1_1"
				(rectangle
					(start -1.27 1.27)
					(end 1.27 -3.81)
					(stroke
						(width 0.254)
						(type default)
					)
					(fill
						(type background)
					)
				)
				(circle
					(center 0 -2.54)
					(radius 0.635)
					(stroke
						(width 0.1524)
						(type default)
					)
					(fill
						(type none)
					)
				)
				(polyline
					(pts
						(xy -0.5334 -2.2098) (xy 0.3302 -3.048)
					)
					(stroke
						(width 0.1524)
						(type default)
					)
					(fill
						(type none)
					)
				)
				(polyline
					(pts
						(xy -0.5334 0.3302) (xy 0.3302 -0.508)
					)
					(stroke
						(width 0.1524)
						(type default)
					)
					(fill
						(type none)
					)
				)
				(polyline
					(pts
						(xy -0.3556 -2.032) (xy 0.508 -2.8702)
					)
					(stroke
						(width 0.1524)
						(type default)
					)
					(fill
						(type none)
					)
				)
				(polyline
					(pts
						(xy -0.3556 0.508) (xy 0.508 -0.3302)
					)
					(stroke
						(width 0.1524)
						(type default)
					)
					(fill
						(type none)
					)
				)
				(circle
					(center 0 0)
					(radius 0.635)
					(stroke
						(width 0.1524)
						(type default)
					)
					(fill
						(type none)
					)
				)
				(pin passive line
					(at -5.08 0 0)
					(length 3.81)
					(name "Pin_1"
						(effects
							(font
								(size 1.27 1.27)
							)
						)
					)
					(number "1"
						(effects
							(font
								(size 1.27 1.27)
							)
						)
					)
				)
				(pin passive line
					(at -5.08 -2.54 0)
					(length 3.81)
					(name "Pin_2"
						(effects
							(font
								(size 1.27 1.27)
							)
						)
					)
					(number "2"
						(effects
							(font
								(size 1.27 1.27)
							)
						)
					)
				)
			)
		)
		(symbol "Connector_Generic:Conn_02x20_Odd_Even"
			(pin_names
				(offset 1.016) hide)
			(exclude_from_sim no)
			(in_bom yes)
			(on_board yes)
			(property "Reference" "J"
				(at 1.27 25.4 0)
				(effects
					(font
						(size 1.27 1.27)
					)
				)
			)
			(property "Value" "Conn_02x20_Odd_Even"
				(at 1.27 -27.94 0)
				(effects
					(font
						(size 1.27 1.27)
					)
				)
			)
			(property "Footprint" ""
				(at 0 0 0)
				(effects
					(font
						(size 1.27 1.27)
					)
					(hide yes)
				)
			)
			(property "Datasheet" "~"
				(at 0 0 0)
				(effects
					(font
						(size 1.27 1.27)
					)
					(hide yes)
				)
			)
			(property "Description" "Generic connector, double row, 02x20, odd/even pin numbering scheme (row 1 odd numbers, row 2 even numbers), script generated (kicad-library-utils/schlib/autogen/connector/)"
				(at 0 0 0)
				(effects
					(font
						(size 1.27 1.27)
					)
					(hide yes)
				)
			)
			(property "ki_keywords" "connector"
				(at 0 0 0)
				(effects
					(font
						(size 1.27 1.27)
					)
					(hide yes)
				)
			)
			(property "ki_fp_filters" "Connector*:*_2x??_*"
				(at 0 0 0)
				(effects
					(font
						(size 1.27 1.27)
					)
					(hide yes)
				)
			)
			(symbol "Conn_02x20_Odd_Even_1_1"
				(rectangle
					(start -1.27 -25.273)
					(end 0 -25.527)
					(stroke
						(width 0.1524)
						(type default)
					)
					(fill
						(type none)
					)
				)
				(rectangle
					(start -1.27 -22.733)
					(end 0 -22.987)
					(stroke
						(width 0.1524)
						(type default)
					)
					(fill
						(type none)
					)
				)
				(rectangle
					(start -1.27 -20.193)
					(end 0 -20.447)
					(stroke
						(width 0.1524)
						(type default)
					)
					(fill
						(type none)
					)
				)
				(rectangle
					(start -1.27 -17.653)
					(end 0 -17.907)
					(stroke
						(width 0.1524)
						(type default)
					)
					(fill
						(type none)
					)
				)
				(rectangle
					(start -1.27 -15.113)
					(end 0 -15.367)
					(stroke
						(width 0.1524)
						(type default)
					)
					(fill
						(type none)
					)
				)
				(rectangle
					(start -1.27 -12.573)
					(end 0 -12.827)
					(stroke
						(width 0.1524)
						(type default)
					)
					(fill
						(type none)
					)
				)
				(rectangle
					(start -1.27 -10.033)
					(end 0 -10.287)
					(stroke
						(width 0.1524)
						(type default)
					)
					(fill
						(type none)
					)
				)
				(rectangle
					(start -1.27 -7.493)
					(end 0 -7.747)
					(stroke
						(width 0.1524)
						(type default)
					)
					(fill
						(type none)
					)
				)
				(rectangle
					(start -1.27 -4.953)
					(end 0 -5.207)
					(stroke
						(width 0.1524)
						(type default)
					)
					(fill
						(type none)
					)
				)
				(rectangle
					(start -1.27 -2.413)
					(end 0 -2.667)
					(stroke
						(width 0.1524)
						(type default)
					)
					(fill
						(type none)
					)
				)
				(rectangle
					(start -1.27 0.127)
					(end 0 -0.127)
					(stroke
						(width 0.1524)
						(type default)
					)
					(fill
						(type none)
					)
				)
				(rectangle
					(start -1.27 2.667)
					(end 0 2.413)
					(stroke
						(width 0.1524)
						(type default)
					)
					(fill
						(type none)
					)
				)
				(rectangle
					(start -1.27 5.207)
					(end 0 4.953)
					(stroke
						(width 0.1524)
						(type default)
					)
					(fill
						(type none)
					)
				)
				(rectangle
					(start -1.27 7.747)
					(end 0 7.493)
					(stroke
						(width 0.1524)
						(type default)
					)
					(fill
						(type none)
					)
				)
				(rectangle
					(start -1.27 10.287)
					(end 0 10.033)
					(stroke
						(width 0.1524)
						(type default)
					)
					(fill
						(type none)
					)
				)
				(rectangle
					(start -1.27 12.827)
					(end 0 12.573)
					(stroke
						(width 0.1524)
						(type default)
					)
					(fill
						(type none)
					)
				)
				(rectangle
					(start -1.27 15.367)
					(end 0 15.113)
					(stroke
						(width 0.1524)
						(type default)
					)
					(fill
						(type none)
					)
				)
				(rectangle
					(start -1.27 17.907)
					(end 0 17.653)
					(stroke
						(width 0.1524)
						(type default)
					)
					(fill
						(type none)
					)
				)
				(rectangle
					(start -1.27 20.447)
					(end 0 20.193)
					(stroke
						(width 0.1524)
						(type default)
					)
					(fill
						(type none)
					)
				)
				(rectangle
					(start -1.27 22.987)
					(end 0 22.733)
					(stroke
						(width 0.1524)
						(type default)
					)
					(fill
						(type none)
					)
				)
				(rectangle
					(start -1.27 24.13)
					(end 3.81 -26.67)
					(stroke
						(width 0.254)
						(type default)
					)
					(fill
						(type background)
					)
				)
				(rectangle
					(start 3.81 -25.273)
					(end 2.54 -25.527)
					(stroke
						(width 0.1524)
						(type default)
					)
					(fill
						(type none)
					)
				)
				(rectangle
					(start 3.81 -22.733)
					(end 2.54 -22.987)
					(stroke
						(width 0.1524)
						(type default)
					)
					(fill
						(type none)
					)
				)
				(rectangle
					(start 3.81 -20.193)
					(end 2.54 -20.447)
					(stroke
						(width 0.1524)
						(type default)
					)
					(fill
						(type none)
					)
				)
				(rectangle
					(start 3.81 -17.653)
					(end 2.54 -17.907)
					(stroke
						(width 0.1524)
						(type default)
					)
					(fill
						(type none)
					)
				)
				(rectangle
					(start 3.81 -15.113)
					(end 2.54 -15.367)
					(stroke
						(width 0.1524)
						(type default)
					)
					(fill
						(type none)
					)
				)
				(rectangle
					(start 3.81 -12.573)
					(end 2.54 -12.827)
					(stroke
						(width 0.1524)
						(type default)
					)
					(fill
						(type none)
					)
				)
				(rectangle
					(start 3.81 -10.033)
					(end 2.54 -10.287)
					(stroke
						(width 0.1524)
						(type default)
					)
					(fill
						(type none)
					)
				)
				(rectangle
					(start 3.81 -7.493)
					(end 2.54 -7.747)
					(stroke
						(width 0.1524)
						(type default)
					)
					(fill
						(type none)
					)
				)
				(rectangle
					(start 3.81 -4.953)
					(end 2.54 -5.207)
					(stroke
						(width 0.1524)
						(type default)
					)
					(fill
						(type none)
					)
				)
				(rectangle
					(start 3.81 -2.413)
					(end 2.54 -2.667)
					(stroke
						(width 0.1524)
						(type default)
					)
					(fill
						(type none)
					)
				)
				(rectangle
					(start 3.81 0.127)
					(end 2.54 -0.127)
					(stroke
						(width 0.1524)
						(type default)
					)
					(fill
						(type none)
					)
				)
				(rectangle
					(start 3.81 2.667)
					(end 2.54 2.413)
					(stroke
						(width 0.1524)
						(type default)
					)
					(fill
						(type none)
					)
				)
				(rectangle
					(start 3.81 5.207)
					(end 2.54 4.953)
					(stroke
						(width 0.1524)
						(type default)
					)
					(fill
						(type none)
					)
				)
				(rectangle
					(start 3.81 7.747)
					(end 2.54 7.493)
					(stroke
						(width 0.1524)
						(type default)
					)
					(fill
						(type none)
					)
				)
				(rectangle
					(start 3.81 10.287)
					(end 2.54 10.033)
					(stroke
						(width 0.1524)
						(type default)
					)
					(fill
						(type none)
					)
				)
				(rectangle
					(start 3.81 12.827)
					(end 2.54 12.573)
					(stroke
						(width 0.1524)
						(type default)
					)
					(fill
						(type none)
					)
				)
				(rectangle
					(start 3.81 15.367)
					(end 2.54 15.113)
					(stroke
						(width 0.1524)
						(type default)
					)
					(fill
						(type none)
					)
				)
				(rectangle
					(start 3.81 17.907)
					(end 2.54 17.653)
					(stroke
						(width 0.1524)
						(type default)
					)
					(fill
						(type none)
					)
				)
				(rectangle
					(start 3.81 20.447)
					(end 2.54 20.193)
					(stroke
						(width 0.1524)
						(type default)
					)
					(fill
						(type none)
					)
				)
				(rectangle
					(start 3.81 22.987)
					(end 2.54 22.733)
					(stroke
						(width 0.1524)
						(type default)
					)
					(fill
						(type none)
					)
				)
				(pin passive line
					(at -5.08 22.86 0)
					(length 3.81)
					(name "Pin_1"
						(effects
							(font
								(size 1.27 1.27)
							)
						)
					)
					(number "1"
						(effects
							(font
								(size 1.27 1.27)
							)
						)
					)
				)
				(pin passive line
					(at 7.62 12.7 180)
					(length 3.81)
					(name "Pin_10"
						(effects
							(font
								(size 1.27 1.27)
							)
						)
					)
					(number "10"
						(effects
							(font
								(size 1.27 1.27)
							)
						)
					)
				)
				(pin passive line
					(at -5.08 10.16 0)
					(length 3.81)
					(name "Pin_11"
						(effects
							(font
								(size 1.27 1.27)
							)
						)
					)
					(number "11"
						(effects
							(font
								(size 1.27 1.27)
							)
						)
					)
				)
				(pin passive line
					(at 7.62 10.16 180)
					(length 3.81)
					(name "Pin_12"
						(effects
							(font
								(size 1.27 1.27)
							)
						)
					)
					(number "12"
						(effects
							(font
								(size 1.27 1.27)
							)
						)
					)
				)
				(pin passive line
					(at -5.08 7.62 0)
					(length 3.81)
					(name "Pin_13"
						(effects
							(font
								(size 1.27 1.27)
							)
						)
					)
					(number "13"
						(effects
							(font
								(size 1.27 1.27)
							)
						)
					)
				)
				(pin passive line
					(at 7.62 7.62 180)
					(length 3.81)
					(name "Pin_14"
						(effects
							(font
								(size 1.27 1.27)
							)
						)
					)
					(number "14"
						(effects
							(font
								(size 1.27 1.27)
							)
						)
					)
				)
				(pin passive line
					(at -5.08 5.08 0)
					(length 3.81)
					(name "Pin_15"
						(effects
							(font
								(size 1.27 1.27)
							)
						)
					)
					(number "15"
						(effects
							(font
								(size 1.27 1.27)
							)
						)
					)
				)
				(pin passive line
					(at 7.62 5.08 180)
					(length 3.81)
					(name "Pin_16"
						(effects
							(font
								(size 1.27 1.27)
							)
						)
					)
					(number "16"
						(effects
							(font
								(size 1.27 1.27)
							)
						)
					)
				)
				(pin passive line
					(at -5.08 2.54 0)
					(length 3.81)
					(name "Pin_17"
						(effects
							(font
								(size 1.27 1.27)
							)
						)
					)
					(number "17"
						(effects
							(font
								(size 1.27 1.27)
							)
						)
					)
				)
				(pin passive line
					(at 7.62 2.54 180)
					(length 3.81)
					(name "Pin_18"
						(effects
							(font
								(size 1.27 1.27)
							)
						)
					)
					(number "18"
						(effects
							(font
								(size 1.27 1.27)
							)
						)
					)
				)
				(pin passive line
					(at -5.08 0 0)
					(length 3.81)
					(name "Pin_19"
						(effects
							(font
								(size 1.27 1.27)
							)
						)
					)
					(number "19"
						(effects
							(font
								(size 1.27 1.27)
							)
						)
					)
				)
				(pin passive line
					(at 7.62 22.86 180)
					(length 3.81)
					(name "Pin_2"
						(effects
							(font
								(size 1.27 1.27)
							)
						)
					)
					(number "2"
						(effects
							(font
								(size 1.27 1.27)
							)
						)
					)
				)
				(pin passive line
					(at 7.62 0 180)
					(length 3.81)
					(name "Pin_20"
						(effects
							(font
								(size 1.27 1.27)
							)
						)
					)
					(number "20"
						(effects
							(font
								(size 1.27 1.27)
							)
						)
					)
				)
				(pin passive line
					(at -5.08 -2.54 0)
					(length 3.81)
					(name "Pin_21"
						(effects
							(font
								(size 1.27 1.27)
							)
						)
					)
					(number "21"
						(effects
							(font
								(size 1.27 1.27)
							)
						)
					)
				)
				(pin passive line
					(at 7.62 -2.54 180)
					(length 3.81)
					(name "Pin_22"
						(effects
							(font
								(size 1.27 1.27)
							)
						)
					)
					(number "22"
						(effects
							(font
								(size 1.27 1.27)
							)
						)
					)
				)
				(pin passive line
					(at -5.08 -5.08 0)
					(length 3.81)
					(name "Pin_23"
						(effects
							(font
								(size 1.27 1.27)
							)
						)
					)
					(number "23"
						(effects
							(font
								(size 1.27 1.27)
							)
						)
					)
				)
				(pin passive line
					(at 7.62 -5.08 180)
					(length 3.81)
					(name "Pin_24"
						(effects
							(font
								(size 1.27 1.27)
							)
						)
					)
					(number "24"
						(effects
							(font
								(size 1.27 1.27)
							)
						)
					)
				)
				(pin passive line
					(at -5.08 -7.62 0)
					(length 3.81)
					(name "Pin_25"
						(effects
							(font
								(size 1.27 1.27)
							)
						)
					)
					(number "25"
						(effects
							(font
								(size 1.27 1.27)
							)
						)
					)
				)
				(pin passive line
					(at 7.62 -7.62 180)
					(length 3.81)
					(name "Pin_26"
						(effects
							(font
								(size 1.27 1.27)
							)
						)
					)
					(number "26"
						(effects
							(font
								(size 1.27 1.27)
							)
						)
					)
				)
				(pin passive line
					(at -5.08 -10.16 0)
					(length 3.81)
					(name "Pin_27"
						(effects
							(font
								(size 1.27 1.27)
							)
						)
					)
					(number "27"
						(effects
							(font
								(size 1.27 1.27)
							)
						)
					)
				)
				(pin passive line
					(at 7.62 -10.16 180)
					(length 3.81)
					(name "Pin_28"
						(effects
							(font
								(size 1.27 1.27)
							)
						)
					)
					(number "28"
						(effects
							(font
								(size 1.27 1.27)
							)
						)
					)
				)
				(pin passive line
					(at -5.08 -12.7 0)
					(length 3.81)
					(name "Pin_29"
						(effects
							(font
								(size 1.27 1.27)
							)
						)
					)
					(number "29"
						(effects
							(font
								(size 1.27 1.27)
							)
						)
					)
				)
				(pin passive line
					(at -5.08 20.32 0)
					(length 3.81)
					(name "Pin_3"
						(effects
							(font
								(size 1.27 1.27)
							)
						)
					)
					(number "3"
						(effects
							(font
								(size 1.27 1.27)
							)
						)
					)
				)
				(pin passive line
					(at 7.62 -12.7 180)
					(length 3.81)
					(name "Pin_30"
						(effects
							(font
								(size 1.27 1.27)
							)
						)
					)
					(number "30"
						(effects
							(font
								(size 1.27 1.27)
							)
						)
					)
				)
				(pin passive line
					(at -5.08 -15.24 0)
					(length 3.81)
					(name "Pin_31"
						(effects
							(font
								(size 1.27 1.27)
							)
						)
					)
					(number "31"
						(effects
							(font
								(size 1.27 1.27)
							)
						)
					)
				)
				(pin passive line
					(at 7.62 -15.24 180)
					(length 3.81)
					(name "Pin_32"
						(effects
							(font
								(size 1.27 1.27)
							)
						)
					)
					(number "32"
						(effects
							(font
								(size 1.27 1.27)
							)
						)
					)
				)
				(pin passive line
					(at -5.08 -17.78 0)
					(length 3.81)
					(name "Pin_33"
						(effects
							(font
								(size 1.27 1.27)
							)
						)
					)
					(number "33"
						(effects
							(font
								(size 1.27 1.27)
							)
						)
					)
				)
				(pin passive line
					(at 7.62 -17.78 180)
					(length 3.81)
					(name "Pin_34"
						(effects
							(font
								(size 1.27 1.27)
							)
						)
					)
					(number "34"
						(effects
							(font
								(size 1.27 1.27)
							)
						)
					)
				)
				(pin passive line
					(at -5.08 -20.32 0)
					(length 3.81)
					(name "Pin_35"
						(effects
							(font
								(size 1.27 1.27)
							)
						)
					)
					(number "35"
						(effects
							(font
								(size 1.27 1.27)
							)
						)
					)
				)
				(pin passive line
					(at 7.62 -20.32 180)
					(length 3.81)
					(name "Pin_36"
						(effects
							(font
								(size 1.27 1.27)
							)
						)
					)
					(number "36"
						(effects
							(font
								(size 1.27 1.27)
							)
						)
					)
				)
				(pin passive line
					(at -5.08 -22.86 0)
					(length 3.81)
					(name "Pin_37"
						(effects
							(font
								(size 1.27 1.27)
							)
						)
					)
					(number "37"
						(effects
							(font
								(size 1.27 1.27)
							)
						)
					)
				)
				(pin passive line
					(at 7.62 -22.86 180)
					(length 3.81)
					(name "Pin_38"
						(effects
							(font
								(size 1.27 1.27)
							)
						)
					)
					(number "38"
						(effects
							(font
								(size 1.27 1.27)
							)
						)
					)
				)
				(pin passive line
					(at -5.08 -25.4 0)
					(length 3.81)
					(name "Pin_39"
						(effects
							(font
								(size 1.27 1.27)
							)
						)
					)
					(number "39"
						(effects
							(font
								(size 1.27 1.27)
							)
						)
					)
				)
				(pin passive line
					(at 7.62 20.32 180)
					(length 3.81)
					(name "Pin_4"
						(effects
							(font
								(size 1.27 1.27)
							)
						)
					)
					(number "4"
						(effects
							(font
								(size 1.27 1.27)
							)
						)
					)
				)
				(pin passive line
					(at 7.62 -25.4 180)
					(length 3.81)
					(name "Pin_40"
						(effects
							(font
								(size 1.27 1.27)
							)
						)
					)
					(number "40"
						(effects
							(font
								(size 1.27 1.27)
							)
						)
					)
				)
				(pin passive line
					(at -5.08 17.78 0)
					(length 3.81)
					(name "Pin_5"
						(effects
							(font
								(size 1.27 1.27)
							)
						)
					)
					(number "5"
						(effects
							(font
								(size 1.27 1.27)
							)
						)
					)
				)
				(pin passive line
					(at 7.62 17.78 180)
					(length 3.81)
					(name "Pin_6"
						(effects
							(font
								(size 1.27 1.27)
							)
						)
					)
					(number "6"
						(effects
							(font
								(size 1.27 1.27)
							)
						)
					)
				)
				(pin passive line
					(at -5.08 15.24 0)
					(length 3.81)
					(name "Pin_7"
						(effects
							(font
								(size 1.27 1.27)
							)
						)
					)
					(number "7"
						(effects
							(font
								(size 1.27 1.27)
							)
						)
					)
				)
				(pin passive line
					(at 7.62 15.24 180)
					(length 3.81)
					(name "Pin_8"
						(effects
							(font
								(size 1.27 1.27)
							)
						)
					)
					(number "8"
						(effects
							(font
								(size 1.27 1.27)
							)
						)
					)
				)
				(pin passive line
					(at -5.08 12.7 0)
					(length 3.81)
					(name "Pin_9"
						(effects
							(font
								(size 1.27 1.27)
							)
						)
					)
					(number "9"
						(effects
							(font
								(size 1.27 1.27)
							)
						)
					)
				)
			)
		)
		(symbol "power:GND"
			(power)
			(pin_names
				(offset 0)
			)
			(exclude_from_sim no)
			(in_bom yes)
			(on_board yes)
			(property "Reference" "#PWR"
				(at 0 -6.35 0)
				(effects
					(font
						(size 1.27 1.27)
					)
					(hide yes)
				)
			)
			(property "Value" "GND"
				(at 0 -3.81 0)
				(effects
					(font
						(size 1.27 1.27)
					)
				)
			)
			(property "Footprint" ""
				(at 0 0 0)
				(effects
					(font
						(size 1.27 1.27)
					)
					(hide yes)
				)
			)
			(property "Datasheet" ""
				(at 0 0 0)
				(effects
					(font
						(size 1.27 1.27)
					)
					(hide yes)
				)
			)
			(property "Description" "Power symbol creates a global label with name \"GND\" , ground"
				(at 0 0 0)
				(effects
					(font
						(size 1.27 1.27)
					)
					(hide yes)
				)
			)
			(property "ki_keywords" "power-flag"
				(at 0 0 0)
				(effects
					(font
						(size 1.27 1.27)
					)
					(hide yes)
				)
			)
			(symbol "GND_0_1"
				(polyline
					(pts
						(xy 0 0) (xy 0 -1.27) (xy 1.27 -1.27) (xy 0 -2.54) (xy -1.27 -1.27) (xy 0 -1.27)
					)
					(stroke
						(width 0)
						(type default)
					)
					(fill
						(type none)
					)
				)
			)
			(symbol "GND_1_1"
				(pin power_in line
					(at 0 0 270)
					(length 0) hide
					(name "GND"
						(effects
							(font
								(size 1.27 1.27)
							)
						)
					)
					(number "1"
						(effects
							(font
								(size 1.27 1.27)
							)
						)
					)
				)
			)
		)
	)
	(no_connect
		(at 52.07 83.82)
		(uuid "14066874-b28e-4193-b811-51435c01b6d1")
	)
	(no_connect
		(at 64.77 111.76)
		(uuid "1897d0c0-4904-4229-a349-01eeda338b8b")
	)
	(no_connect
		(at 64.77 93.98)
		(uuid "1bc8a470-df8c-4eaa-a3ce-8bdadb2e2201")
	)
	(no_connect
		(at 64.77 88.9)
		(uuid "281f2346-df35-4027-a325-603cf1e0f458")
	)
	(no_connect
		(at 52.07 86.36)
		(uuid "4c4c64dd-0eba-47c9-b792-5eedc842a0c5")
	)
	(no_connect
		(at 64.77 71.12)
		(uuid "60bc21de-cbe6-4c5c-82cc-dd03b786ddd4")
	)
	(no_connect
		(at 64.77 81.28)
		(uuid "68b6b806-cece-4089-a7fc-8cc71ac72782")
	)
	(no_connect
		(at 52.07 96.52)
		(uuid "6ca382f2-aad8-4da7-851e-753db74fa8f7")
	)
	(no_connect
		(at 64.77 73.66)
		(uuid "78b2b7a0-4f70-42f5-85ba-933bbb0b97cf")
	)
	(no_connect
		(at 52.07 78.74)
		(uuid "7af9f6c0-82da-4d11-98b2-833c0e9ad0a6")
	)
	(no_connect
		(at 52.07 106.68)
		(uuid "82834c7b-a49c-4dee-b923-dd6e1d41d0b3")
	)
	(no_connect
		(at 64.77 96.52)
		(uuid "94648c54-f366-4c22-bfdc-15d3cef3b367")
	)
	(no_connect
		(at 64.77 106.68)
		(uuid "96abcfbd-b03d-49f2-9378-408b34f7594c")
	)
	(no_connect
		(at 64.77 109.22)
		(uuid "9944af40-161f-4594-9851-41b5ecaba48a")
	)
	(no_connect
		(at 52.07 91.44)
		(uuid "be427386-b3c6-4406-8846-97830b0453e0")
	)
	(no_connect
		(at 64.77 83.82)
		(uuid "c0893d4f-ba31-4f35-aeaa-bd8bf0261b86")
	)
	(no_connect
		(at 64.77 101.6)
		(uuid "c7dedf86-44ba-4114-bb29-eef5c9cbc183")
	)
	(no_connect
		(at 64.77 91.44)
		(uuid "d28a7351-e5fc-4146-ad27-0151a9b7aeeb")
	)
	(no_connect
		(at 64.77 76.2)
		(uuid "e0248a23-18cb-4116-a0c0-77e549a45c2a")
	)
	(no_connect
		(at 52.07 88.9)
		(uuid "ed990b48-aa1f-4632-b341-d7b309c99339")
	)
	(no_connect
		(at 52.07 71.12)
		(uuid "ee5c921c-ada3-40ab-abfe-93208a6155ae")
	)
	(no_connect
		(at 52.07 81.28)
		(uuid "f0875a7b-9479-4694-82d9-fe6855f54838")
	)
	(wire
		(pts
			(xy 64.77 63.5) (xy 64.77 66.04)
		)
		(stroke
			(width 0)
			(type default)
		)
		(uuid "24c7d441-2017-4d87-85a5-986b6a3a8588")
	)
	(wire
		(pts
			(xy 228.6 76.2) (xy 228.6 78.74)
		)
		(stroke
			(width 0)
			(type default)
		)
		(uuid "53f72875-7b25-411a-955d-0109d39cf633")
	)
	(wire
		(pts
			(xy 214.63 74.93) (xy 219.71 74.93)
		)
		(stroke
			(width 0)
			(type default)
		)
		(uuid "641c519b-6cb5-4751-a255-b34f03bb9e88")
	)
	(wire
		(pts
			(xy 214.63 77.47) (xy 219.71 77.47)
		)
		(stroke
			(width 0)
			(type default)
		)
		(uuid "90dfaa7d-2d0a-4042-ab79-d3fe0720abe0")
	)
	(rectangle
		(start 38.1 53.34)
		(end 120.65 120.65)
		(stroke
			(width 0)
			(type default)
		)
		(fill
			(type none)
		)
		(uuid 23799e8c-64b3-468d-99c4-c475bad09910)
	)
	(rectangle
		(start 199.39 60.96)
		(end 265.43 111.76)
		(stroke
			(width 0)
			(type default)
		)
		(fill
			(type none)
		)
		(uuid ce7721c9-196c-4596-be28-a359e131d86a)
	)
	(text "CONECTORES"
		(exclude_from_sim no)
		(at 199.39 60.96 0)
		(effects
			(font
				(size 1.27 1.27)
			)
			(justify left bottom)
		)
		(uuid "edcf188e-c052-400e-8eb6-a1b5906d0107")
	)
	(text "INTEGRADOS"
		(exclude_from_sim no)
		(at 38.1 53.34 0)
		(effects
			(font
				(size 1.27 1.27)
			)
			(justify left bottom)
		)
		(uuid "f51b3397-7a4e-4318-9dae-d3cff8d4ff68")
	)
	(label "+5V"
		(at 64.77 63.5 0)
		(fields_autoplaced yes)
		(effects
			(font
				(size 1.27 1.27)
			)
			(justify left bottom)
		)
		(uuid "03552774-8014-41ad-8ad9-5439dba0013e")
	)
	(label "GND"
		(at 218.44 99.06 270)
		(fields_autoplaced yes)
		(effects
			(font
				(size 1.27 1.27)
			)
			(justify right bottom)
		)
		(uuid "1f85f3d5-3418-4b16-a8c7-ffea0bfacacf")
	)
	(label "GND"
		(at 64.77 68.58 0)
		(fields_autoplaced yes)
		(effects
			(font
				(size 1.27 1.27)
			)
			(justify left bottom)
		)
		(uuid "2fdcc0b6-7b7a-4392-bcca-0c2e78149554")
	)
	(label "O_dir_b2"
		(at 52.07 109.22 180)
		(fields_autoplaced yes)
		(effects
			(font
				(size 1.27 1.27)
			)
			(justify right bottom)
		)
		(uuid "3514ad3e-0d4c-42ef-9f1f-16e8dabdb6ef")
	)
	(label "O_dir_a2"
		(at 52.07 101.6 180)
		(fields_autoplaced yes)
		(effects
			(font
				(size 1.27 1.27)
			)
			(justify right bottom)
		)
		(uuid "3a273519-f6bb-4a60-a4de-a0fd7904fce3")
	)
	(label "+3.3V"
		(at 208.28 99.06 270)
		(fields_autoplaced yes)
		(effects
			(font
				(size 1.27 1.27)
			)
			(justify right bottom)
		)
		(uuid "44a01d18-b361-4957-bb55-89c178af5df8")
	)
	(label "GND"
		(at 52.07 73.66 180)
		(fields_autoplaced yes)
		(effects
			(font
				(size 1.27 1.27)
			)
			(justify right bottom)
		)
		(uuid "59a02dd7-b4d6-4141-9cd1-87fb4151f045")
	)
	(label "O_dir_b1"
		(at 232.41 101.6 270)
		(fields_autoplaced yes)
		(effects
			(font
				(size 1.27 1.27)
			)
			(justify right bottom)
		)
		(uuid "603c5fd7-c93a-4b77-a28a-4a7f5ead2951")
	)
	(label "OE"
		(at 52.07 76.2 180)
		(effects
			(font
				(size 1.27 1.27)
			)
			(justify right bottom)
		)
		(uuid "68975ce1-d508-43a8-85c3-7722aabf4c97")
	)
	(label "O_dir_b1"
		(at 52.07 104.14 180)
		(fields_autoplaced yes)
		(effects
			(font
				(size 1.27 1.27)
			)
			(justify right bottom)
		)
		(uuid "6c07c45b-a265-468c-80dd-2a6f18b0067b")
	)
	(label "GND"
		(at 64.77 104.14 0)
		(fields_autoplaced yes)
		(effects
			(font
				(size 1.27 1.27)
			)
			(justify left bottom)
		)
		(uuid "6c6a7f4a-8d2d-4947-bbcb-9f75a5ebb1a4")
	)
	(label "+3.3V"
		(at 52.07 63.5 180)
		(fields_autoplaced yes)
		(effects
			(font
				(size 1.27 1.27)
			)
			(justify right bottom)
		)
		(uuid "726cf965-49dd-4e3b-8f43-a24a8dde3fba")
	)
	(label "GND"
		(at 64.77 99.06 0)
		(fields_autoplaced yes)
		(effects
			(font
				(size 1.27 1.27)
			)
			(justify left bottom)
		)
		(uuid "7a5d8ec3-ef3c-446e-bfec-c2b040eb76c7")
	)
	(label "GND"
		(at 64.77 86.36 0)
		(fields_autoplaced yes)
		(effects
			(font
				(size 1.27 1.27)
			)
			(justify left bottom)
		)
		(uuid "89494135-b8ad-4ee5-a513-b4c35142b8e5")
	)
	(label "GND"
		(at 228.6 76.2 90)
		(fields_autoplaced yes)
		(effects
			(font
				(size 1.27 1.27)
			)
			(justify left bottom)
		)
		(uuid "89696dac-081b-489a-9cdd-387352434ed2")
	)
	(label "SDA"
		(at 210.82 99.06 270)
		(fields_autoplaced yes)
		(effects
			(font
				(size 1.27 1.27)
			)
			(justify right bottom)
		)
		(uuid "9020092a-3d6a-4533-a4c2-14ac968dbf27")
	)
	(label "GND"
		(at 52.07 111.76 180)
		(fields_autoplaced yes)
		(effects
			(font
				(size 1.27 1.27)
			)
			(justify right bottom)
		)
		(uuid "986a995c-1e26-4989-b8fb-8a47d035b936")
	)
	(label "SCL"
		(at 52.07 68.58 180)
		(fields_autoplaced yes)
		(effects
			(font
				(size 1.27 1.27)
			)
			(justify right bottom)
		)
		(uuid "9b00f826-42eb-42d7-b889-cacbc0f5b208")
	)
	(label "SDA"
		(at 52.07 66.04 180)
		(fields_autoplaced yes)
		(effects
			(font
				(size 1.27 1.27)
			)
			(justify right bottom)
		)
		(uuid "acf0a966-4da3-4d9c-ace8-567fbe8609e3")
	)
	(label "GND"
		(at 64.77 78.74 0)
		(fields_autoplaced yes)
		(effects
			(font
				(size 1.27 1.27)
			)
			(justify left bottom)
		)
		(uuid "b34bba7d-f8ac-4638-bef6-6438e2cc3d23")
	)
	(label "GND"
		(at 219.71 77.47 0)
		(fields_autoplaced yes)
		(effects
			(font
				(size 1.27 1.27)
			)
			(justify left bottom)
		)
		(uuid "d02be1bf-4ed4-40a6-98c6-f039b4cc0dea")
	)
	(label "O_dir_a1"
		(at 237.49 101.6 270)
		(fields_autoplaced yes)
		(effects
			(font
				(size 1.27 1.27)
			)
			(justify right bottom)
		)
		(uuid "d521e4e8-992d-4da9-83cf-0c90543e426c")
	)
	(label "+5V"
		(at 219.71 74.93 0)
		(fields_autoplaced yes)
		(effects
			(font
				(size 1.27 1.27)
			)
			(justify left bottom)
		)
		(uuid "d6eeacbf-2368-4d7e-ad29-169dfdefa46f")
	)
	(label "OE"
		(at 215.9 99.06 270)
		(fields_autoplaced yes)
		(effects
			(font
				(size 1.27 1.27)
			)
			(justify right bottom)
		)
		(uuid "db0cbeb0-44a6-40b6-b5fe-171a015e5c47")
	)
	(label "O_dir_a2"
		(at 234.95 101.6 270)
		(fields_autoplaced yes)
		(effects
			(font
				(size 1.27 1.27)
			)
			(justify right bottom)
		)
		(uuid "e169e76d-7be5-46b6-b907-d0c8b17a2c1c")
	)
	(label "O_dir_b2"
		(at 229.87 101.6 270)
		(fields_autoplaced yes)
		(effects
			(font
				(size 1.27 1.27)
			)
			(justify right bottom)
		)
		(uuid "e1749823-a4d1-4bd8-953a-69f732ef3a8f")
	)
	(label "SCL"
		(at 213.36 99.06 270)
		(fields_autoplaced yes)
		(effects
			(font
				(size 1.27 1.27)
			)
			(justify right bottom)
		)
		(uuid "f78ede9a-1801-4847-b123-1e639202a865")
	)
	(label "GND"
		(at 240.03 101.6 270)
		(fields_autoplaced yes)
		(effects
			(font
				(size 1.27 1.27)
			)
			(justify right bottom)
		)
		(uuid "f79868d1-5d2b-4615-bbe0-8bab3ef2c2de")
	)
	(label "O_dir_a1"
		(at 52.07 99.06 180)
		(fields_autoplaced yes)
		(effects
			(font
				(size 1.27 1.27)
			)
			(justify right bottom)
		)
		(uuid "f83d0f56-b495-4c82-bc17-241d891bcb1a")
	)
	(label "GND"
		(at 52.07 93.98 180)
		(fields_autoplaced yes)
		(effects
			(font
				(size 1.27 1.27)
			)
			(justify right bottom)
		)
		(uuid "fb166382-0046-4cbd-b1f0-a2b55362e186")
	)
	(symbol
		(lib_id "Connector:Conn_01x05_Pin")
		(at 213.36 93.98 270)
		(unit 1)
		(exclude_from_sim no)
		(in_bom yes)
		(on_board yes)
		(dnp no)
		(fields_autoplaced yes)
		(uuid "5d32c97e-12d5-477d-94bd-05db1d86d1ad")
		(property "Reference" "J3"
			(at 213.36 88.9 90)
			(effects
				(font
					(size 1.27 1.27)
				)
			)
		)
		(property "Value" "I2C"
			(at 213.36 91.44 90)
			(effects
				(font
					(size 1.27 1.27)
				)
			)
		)
		(property "Footprint" "Connector_Molex:Molex_KK-254_AE-6410-05A_1x05_P2.54mm_Vertical"
			(at 213.36 93.98 0)
			(effects
				(font
					(size 1.27 1.27)
				)
				(hide yes)
			)
		)
		(property "Datasheet" "~"
			(at 213.36 93.98 0)
			(effects
				(font
					(size 1.27 1.27)
				)
				(hide yes)
			)
		)
		(property "Description" "Generic connector, single row, 01x05, script generated"
			(at 213.36 93.98 0)
			(effects
				(font
					(size 1.27 1.27)
				)
				(hide yes)
			)
		)
		(pin "5"
			(uuid "b4a8f30e-a7e4-4394-957b-594b4a47eb3e")
		)
		(pin "2"
			(uuid "7b79d848-bcdc-444a-b109-c8673b61f129")
		)
		(pin "1"
			(uuid "13904239-5022-4f78-a41b-6ed23fcef816")
		)
		(pin "4"
			(uuid "daf035ba-8187-4291-a0a4-115ed82c6300")
		)
		(pin "3"
			(uuid "377a6a47-3d54-4bed-81e0-1d200311f076")
		)
		(instances
			(project "M1"
				(path "/a917e773-fe08-452a-936e-0e183dd66cda"
					(reference "J3")
					(unit 1)
				)
			)
		)
	)
	(symbol
		(lib_id "power:GND")
		(at 228.6 78.74 0)
		(unit 1)
		(exclude_from_sim no)
		(in_bom yes)
		(on_board yes)
		(dnp no)
		(uuid "aade5d86-3314-4245-af82-379e8ff8eb83")
		(property "Reference" "#PWR01"
			(at 228.6 85.09 0)
			(effects
				(font
					(size 1.27 1.27)
				)
				(hide yes)
			)
		)
		(property "Value" "GND"
			(at 228.727 83.1342 0)
			(effects
				(font
					(size 1.27 1.27)
				)
			)
		)
		(property "Footprint" ""
			(at 228.6 78.74 0)
			(effects
				(font
					(size 1.27 1.27)
				)
				(hide yes)
			)
		)
		(property "Datasheet" ""
			(at 228.6 78.74 0)
			(effects
				(font
					(size 1.27 1.27)
				)
				(hide yes)
			)
		)
		(property "Description" ""
			(at 228.6 78.74 0)
			(effects
				(font
					(size 1.27 1.27)
				)
				(hide yes)
			)
		)
		(pin "1"
			(uuid "6f2fa7c3-3d61-4998-91e8-f31cdb87e092")
		)
		(instances
			(project "M1"
				(path "/a917e773-fe08-452a-936e-0e183dd66cda"
					(reference "#PWR01")
					(unit 1)
				)
			)
		)
	)
	(symbol
		(lib_id "Connector:Conn_01x05_Pin")
		(at 234.95 96.52 270)
		(unit 1)
		(exclude_from_sim no)
		(in_bom yes)
		(on_board yes)
		(dnp no)
		(fields_autoplaced yes)
		(uuid "b50f41ed-d60c-433e-afd8-79b14739c915")
		(property "Reference" "J4"
			(at 234.95 91.44 90)
			(effects
				(font
					(size 1.27 1.27)
				)
			)
		)
		(property "Value" "sinal_dirs"
			(at 234.95 93.98 90)
			(effects
				(font
					(size 1.27 1.27)
				)
			)
		)
		(property "Footprint" "Connector_Molex:Molex_KK-254_AE-6410-05A_1x05_P2.54mm_Vertical"
			(at 234.95 96.52 0)
			(effects
				(font
					(size 1.27 1.27)
				)
				(hide yes)
			)
		)
		(property "Datasheet" "~"
			(at 234.95 96.52 0)
			(effects
				(font
					(size 1.27 1.27)
				)
				(hide yes)
			)
		)
		(property "Description" "Generic connector, single row, 01x05, script generated"
			(at 234.95 96.52 0)
			(effects
				(font
					(size 1.27 1.27)
				)
				(hide yes)
			)
		)
		(pin "5"
			(uuid "ed2f714c-cba9-44ec-87d9-063b6e0c50ec")
		)
		(pin "3"
			(uuid "fc31b5eb-e5a1-484c-a52e-0e5be8bfd6ac")
		)
		(pin "4"
			(uuid "1d5319f6-d630-4b72-bcbd-b4b7756e5290")
		)
		(pin "1"
			(uuid "f3f6420c-1f7a-4171-8e5b-d126cdfe9b78")
		)
		(pin "2"
			(uuid "c97eeed8-d35c-4076-b82a-3f52880cc694")
		)
		(instances
			(project "M1"
				(path "/a917e773-fe08-452a-936e-0e183dd66cda"
					(reference "J4")
					(unit 1)
				)
			)
		)
	)
	(symbol
		(lib_id "Connector:Screw_Terminal_01x02")
		(at 209.55 77.47 180)
		(unit 1)
		(exclude_from_sim no)
		(in_bom yes)
		(on_board yes)
		(dnp no)
		(fields_autoplaced yes)
		(uuid "d89a8336-1bac-48e1-8089-090d2653cde8")
		(property "Reference" "J2"
			(at 209.55 68.58 0)
			(effects
				(font
					(size 1.27 1.27)
				)
			)
		)
		(property "Value" "Power_supply"
			(at 209.55 71.12 0)
			(effects
				(font
					(size 1.27 1.27)
				)
			)
		)
		(property "Footprint" "Connector_Molex:Molex_KK-254_AE-6410-02A_1x02_P2.54mm_Vertical"
			(at 209.55 77.47 0)
			(effects
				(font
					(size 1.27 1.27)
				)
				(hide yes)
			)
		)
		(property "Datasheet" "~"
			(at 209.55 77.47 0)
			(effects
				(font
					(size 1.27 1.27)
				)
				(hide yes)
			)
		)
		(property "Description" ""
			(at 209.55 77.47 0)
			(effects
				(font
					(size 1.27 1.27)
				)
				(hide yes)
			)
		)
		(pin "2"
			(uuid "abe5678d-e2fd-436c-ada8-9ae2e79b65ad")
		)
		(pin "1"
			(uuid "05282387-71fe-4b83-b211-d22d96eac61b")
		)
		(instances
			(project "M1"
				(path "/a917e773-fe08-452a-936e-0e183dd66cda"
					(reference "J2")
					(unit 1)
				)
			)
		)
	)
	(symbol
		(lib_id "Connector_Generic:Conn_02x20_Odd_Even")
		(at 57.15 86.36 0)
		(unit 1)
		(exclude_from_sim no)
		(in_bom yes)
		(on_board yes)
		(dnp no)
		(fields_autoplaced yes)
		(uuid "e2fb6441-f3b2-4094-b43f-ad6f9c282622")
		(property "Reference" "J1"
			(at 58.42 57.15 0)
			(effects
				(font
					(size 1.27 1.27)
				)
			)
		)
		(property "Value" "Raspberry_PI_4"
			(at 58.42 59.69 0)
			(effects
				(font
					(size 1.27 1.27)
				)
			)
		)
		(property "Footprint" "Connector_PinSocket_2.54mm:PinSocket_2x20_P2.54mm_Vertical"
			(at 57.15 86.36 0)
			(effects
				(font
					(size 1.27 1.27)
				)
				(hide yes)
			)
		)
		(property "Datasheet" "~"
			(at 57.15 86.36 0)
			(effects
				(font
					(size 1.27 1.27)
				)
				(hide yes)
			)
		)
		(property "Description" ""
			(at 57.15 86.36 0)
			(effects
				(font
					(size 1.27 1.27)
				)
				(hide yes)
			)
		)
		(pin "1"
			(uuid "2508f867-ec1b-4b3e-a1a1-964feb2bdae4")
		)
		(pin "10"
			(uuid "67c35045-13df-43b7-a231-05cd9fba392a")
		)
		(pin "11"
			(uuid "075003d9-4f58-4905-8a92-d94c17896d8d")
		)
		(pin "12"
			(uuid "bbc08246-a3a4-4c6c-bcc8-70c8be13d4fa")
		)
		(pin "13"
			(uuid "699caf24-b1d4-42e2-84df-67db88b99e72")
		)
		(pin "14"
			(uuid "859b0bc8-9c7d-4b8c-b5f5-c5403318d970")
		)
		(pin "15"
			(uuid "aea721ed-ac98-4650-9079-90d7f45c4431")
		)
		(pin "16"
			(uuid "01a55725-0a7e-47bf-a759-118155df923a")
		)
		(pin "17"
			(uuid "48e5b222-1236-4567-90a5-5901423e24b1")
		)
		(pin "18"
			(uuid "ee8b0f0b-4aa9-4139-a4b8-50725368cd17")
		)
		(pin "19"
			(uuid "d2b8226b-c090-4a0e-acc9-13570aaafa65")
		)
		(pin "2"
			(uuid "f87aa9ff-09b2-4359-af5d-747fb42fc9d4")
		)
		(pin "20"
			(uuid "49684a9c-6893-4622-820f-514877f91eda")
		)
		(pin "21"
			(uuid "ac3787f0-d100-4c4b-8a1e-89c25a409bc6")
		)
		(pin "22"
			(uuid "03f2d85f-b21d-4df1-b23b-8542eb1ca702")
		)
		(pin "23"
			(uuid "e31f0827-fc2e-45bd-b057-e0d5a8057da2")
		)
		(pin "24"
			(uuid "f7c9a0c2-6b9e-4385-83ec-aebab6a09a52")
		)
		(pin "25"
			(uuid "a31df1cf-fd04-44b5-8752-a6ee4b8aaecd")
		)
		(pin "26"
			(uuid "335fc319-2701-46f6-97b2-a1cef54968bc")
		)
		(pin "27"
			(uuid "f0e2ef07-95c7-44d2-8b6a-0b1710cd9cf6")
		)
		(pin "28"
			(uuid "8d508c35-8ad4-42f4-b615-2dfd0817640b")
		)
		(pin "29"
			(uuid "2b642a79-198e-4433-b14e-e9c3c3acd9c5")
		)
		(pin "3"
			(uuid "0c3ec5b4-c470-4684-8683-90cbc27cf884")
		)
		(pin "30"
			(uuid "dbfc08de-81f9-4acd-93b1-cc3028867d21")
		)
		(pin "31"
			(uuid "65777808-c689-4c7b-b2c3-20ae67455cd3")
		)
		(pin "32"
			(uuid "a83ca69c-942b-4ba1-811a-91b9ad72a503")
		)
		(pin "33"
			(uuid "9f8bd549-1848-43fe-b008-f2dd4f1e8820")
		)
		(pin "34"
			(uuid "dd6cdec0-c04b-4f6f-b40c-ea207c643e78")
		)
		(pin "35"
			(uuid "c9e9061d-edfe-4328-89fe-3a16cb35df7d")
		)
		(pin "36"
			(uuid "ea85cf4a-883d-47d1-94b5-f90ee9653758")
		)
		(pin "37"
			(uuid "85e4c058-e680-4493-b69a-65898dd5b7c1")
		)
		(pin "38"
			(uuid "74e869f8-4807-4911-a3a6-4bbcc126b754")
		)
		(pin "39"
			(uuid "cfb7d351-099f-495d-bc92-2fa2b8d0595b")
		)
		(pin "4"
			(uuid "c2b8ee44-9a87-49cb-aae1-ab076679df89")
		)
		(pin "40"
			(uuid "018e4675-68c5-4fca-8eb5-6303a44c0ef5")
		)
		(pin "5"
			(uuid "5844ff79-1b91-423b-9a8a-66e5f57e3b07")
		)
		(pin "6"
			(uuid "b850450c-ac6e-4074-8421-c4fc75828ad5")
		)
		(pin "7"
			(uuid "a542c8a5-5bc4-49f1-bd30-f3f9a4ac0b12")
		)
		(pin "8"
			(uuid "c75e7a20-3546-4e77-a547-e32ff171e1ad")
		)
		(pin "9"
			(uuid "ee8440ea-01ea-4e1c-a4b2-05faf12e664a")
		)
		(instances
			(project "M1"
				(path "/a917e773-fe08-452a-936e-0e183dd66cda"
					(reference "J1")
					(unit 1)
				)
			)
		)
	)
	(sheet_instances
		(path "/"
			(page "1")
		)
	)
)