(footprint "Molex_KK-396_1x02_P3.96mm_Vertical"
	(version 20240108)
	(generator "pcbnew")
	(generator_version "8.0")
	(layer "F.Cu")
	(descr "Molex KK 396 Interconnect System, old/engineering part number: 5273-02A example for new part number: 09-65-2028, 2 Pins (https://www.molex.com/pdm_docs/sd/009652028_sd.pdf), generated with kicad-footprint-generator")
	(tags "connector Molex KK-396 vertical")
	(property "Reference" "J4"
		(at 1.98 -6.8 180)
		(layer "F.SilkS")
		(uuid "87b15264-50e2-453c-8b24-4c790ea53f95")
		(effects
			(font
				(size 1 1)
				(thickness 0.15)
			)
		)
	)
	(property "Value" "OVS_SIGNAL"
		(at 1.98 6.35 180)
		(layer "F.Fab")
		(uuid "70d23043-fdab-47c7-b3ba-89c1915b248f")
		(effects
			(font
				(size 1 1)
				(thickness 0.15)
			)
		)
	)
	(property "Footprint" "aa_my_pretty_components:Molex_KK-396_1x02_P3.96mm_Vertical"
		(at 0 0 0)
		(unlocked yes)
		(layer "F.Fab")
		(hide yes)
		(uuid "18ce847f-2feb-4e2f-90dd-022f28e94034")
		(effects
			(font
				(size 1.27 1.27)
				(thickness 0.15)
			)
		)
	)
	(property "Datasheet" ""
		(at 0 0 0)
		(unlocked yes)
		(layer "F.Fab")
		(hide yes)
		(uuid "077faae9-e59d-4ff4-95e2-639494d11d4f")
		(effects
			(font
				(size 1.27 1.27)
				(thickness 0.15)
			)
		)
	)
	(property "Description" "Generic connector, single row, 01x02, script generated"
		(at 0 0 0)
		(unlocked yes)
		(layer "F.Fab")
		(hide yes)
		(uuid "eb47fc3d-a87b-47d7-bdce-8ecd351beff3")
		(effects
			(font
				(size 1.27 1.27)
				(thickness 0.15)
			)
		)
	)
	(attr through_hole)
	(fp_line
		(start -2 -2)
		(end -2 2)
		(stroke
			(width 0.12)
			(type solid)
		)
		(layer "F.SilkS")
		(uuid "7e360a78-ab91-4d66-b14f-e3dbf382b3cf")
	)
	(fp_line
		(start -1.71 -5.71)
		(end 0.57 -5.71)
		(stroke
			(width 0.12)
			(type solid)
		)
		(layer "F.SilkS")
		(uuid "4ea1651b-1d81-453f-ba1f-e5da9c69be08")
	)
	(fp_line
		(start -1.71 4.26)
		(end -1.71 -5.71)
		(stroke
			(width 0.12)
			(type solid)
		)
		(layer "F.SilkS")
		(uuid "b44b1941-a1f5-4a22-af27-395f854d8826")
	)
	(fp_line
		(start -1.71 4.26)
		(end 5.67 4.26)
		(stroke
			(width 0.12)
			(type solid)
		)
		(layer "F.SilkS")
		(uuid "99e8f6ed-5b3a-4610-aa3a-3ad9e34209e5")
	)
	(fp_line
		(start -1.71 5.26)
		(end -1.71 4.26)
		(stroke
			(width 0.12)
			(type solid)
		)
		(layer "F.SilkS")
		(uuid "194135b1-3f50-4b5f-9bee-67167fef87e4")
	)
	(fp_line
		(start 0.57 -5.71)
		(end 0.57 -5.31)
		(stroke
			(width 0.12)
			(type solid)
		)
		(layer "F.SilkS")
		(uuid "0803edab-b918-4d3d-97a3-b9c3f2e1b717")
	)
	(fp_line
		(start 0.57 -5.31)
		(end 3.27 -5.31)
		(stroke
			(width 0.12)
			(type solid)
		)
		(layer "F.SilkS")
		(uuid "e3f4d1cc-8b39-4163-b9d2-f8db39d85a38")
	)
	(fp_line
		(start 3.27 -5.71)
		(end 5.67 -5.71)
		(stroke
			(width 0.12)
			(type solid)
		)
		(layer "F.SilkS")
		(uuid "f7f45b9a-5d0e-43cd-aecd-c00092e97cfc")
	)
	(fp_line
		(start 3.27 -5.31)
		(end 3.27 -5.71)
		(stroke
			(width 0.12)
			(type solid)
		)
		(layer "F.SilkS")
		(uuid "3af4199c-4784-46b5-aa27-4bc57bceaace")
	)
	(fp_line
		(start 5.67 -5.71)
		(end 5.67 5.26)
		(stroke
			(width 0.12)
			(type solid)
		)
		(layer "F.SilkS")
		(uuid "938d3dc6-f951-4bdc-b0fa-7c650c9c228c")
	)
	(fp_line
		(start 5.67 5.26)
		(end -1.71 5.26)
		(stroke
			(width 0.12)
			(type solid)
		)
		(layer "F.SilkS")
		(uuid "24784aa8-b90c-4d75-8d56-8b74d86485df")
	)
	(fp_line
		(start -2.1 -6.1)
		(end -2.1 5.65)
		(stroke
			(width 0.05)
			(type solid)
		)
		(layer "F.CrtYd")
		(uuid "1d852edb-8c83-4d11-b55e-5964465cbec4")
	)
	(fp_line
		(start -2.1 5.65)
		(end 6.06 5.65)
		(stroke
			(width 0.05)
			(type solid)
		)
		(layer "F.CrtYd")
		(uuid "b2206d7c-1ed7-4c46-8493-f16c3eaa2696")
	)
	(fp_line
		(start 6.06 -6.1)
		(end -2.1 -6.1)
		(stroke
			(width 0.05)
			(type solid)
		)
		(layer "F.CrtYd")
		(uuid "a7c7458c-e3b9-42ee-a115-f873235eee38")
	)
	(fp_line
		(start 6.06 5.65)
		(end 6.06 -6.1)
		(stroke
			(width 0.05)
			(type solid)
		)
		(layer "F.CrtYd")
		(uuid "5f927a62-18f2-409f-8bcf-d381574c1fa3")
	)
	(fp_line
		(start -1.6 -5.6)
		(end 5.56 -5.6)
		(stroke
			(width 0.1)
			(type solid)
		)
		(layer "F.Fab")
		(uuid "f47c9029-58a6-4bd4-8898-8b600476d922")
	)
	(fp_line
		(start -1.6 -0.5)
		(end -0.892893 0)
		(stroke
			(width 0.1)
			(type solid)
		)
		(layer "F.Fab")
		(uuid "cdbca5d3-c5a9-4c82-9630-1fc9025c3f89")
	)
	(fp_line
		(start -1.6 5.15)
		(end -1.6 -5.6)
		(stroke
			(width 0.1)
			(type solid)
		)
		(layer "F.Fab")
		(uuid "c1b9e2cd-61fb-436f-945a-83e99637c82d")
	)
	(fp_line
		(start -0.892893 0)
		(end -1.6 0.5)
		(stroke
			(width 0.1)
			(type solid)
		)
		(layer "F.Fab")
		(uuid "5b358dec-a8a1-46b1-933d-d50e5d4078da")
	)
	(fp_line
		(start 5.56 -5.6)
		(end 5.56 5.15)
		(stroke
			(width 0.1)
			(type solid)
		)
		(layer "F.Fab")
		(uuid "a0033150-c771-420f-9789-96cdad0b9cb9")
	)
	(fp_line
		(start 5.56 5.15)
		(end -1.6 5.15)
		(stroke
			(width 0.1)
			(type solid)
		)
		(layer "F.Fab")
		(uuid "83fcb8c8-b15c-4569-8e7b-55c048c495d3")
	)
	(fp_text user "${REFERENCE}"
		(at 1.98 -4.9 180)
		(layer "F.Fab")
		(uuid "e929d1cb-3ccf-4047-870c-1a0ac009fb83")
		(effects
			(font
				(size 1 1)
				(thickness 0.15)
			)
		)
	)
	(pad "1" thru_hole roundrect
		(at 0 0)
		(size 3.5 4.5)
		(drill 1.8)
		(layers "*.Cu" "*.Mask")
		(remove_unused_layers no)
		(roundrect_rratio 0.079114)
		(uuid "5ca0520d-6095-4290-8460-f0eef25d047c")
	)
	(pad "2" thru_hole oval
		(at 3.96 0)
		(size 3.5 4.5)
		(drill 1.8)
		(layers "*.Cu" "*.Mask")
		(remove_unused_layers no)
		(uuid "f70d953a-af20-4cc1-b544-29e5412180dd")
	)
	(model "/home/matiasmollecker/.local/share/kicad/8.0/3dmodels/my_3D_models/molex-kk-396/molex-kk-396-2-V.stp"
		(offset
			(xyz 2 4.6 -1.5)
		)
		(scale
			(xyz 1 1 1)
		)
		(rotate
			(xyz 90 0 180)
		)
	)
)
